text
"Combined range of all rodent species (not including introduced populations)
"
". About 40% of all mammal species are rodents (2,277 species); they are found in vast numbers on all continents except "
" (burrowing), or semiaquatic. Well-known rodents include "
". Nonetheless, Rodentia and Lagomorpha are "
"Most rodents are small animals with robust bodies, short limbs, and long tails. They use their sharp incisors to gnaw food, excavate burrows, and defend themselves. Most eat seeds or other plant material, but some have more varied diets. They tend to be social animals and many species live in societies with complex ways of communicating with each other. Mating among rodents can vary from "
.  Rodents greatly diversified in the
. Rodents reached both South America and Madagascar from Africa and were the only terrestrial
"Rodents have been used as food, for clothing, as pets, and as "
of rodents are often considered to be
Drawing of typical rodent tooth system: The front surface of the
"The distinguishing feature of the rodents is their pairs of continuously growing, razor-sharp, open-rooted "
", occurs between the incisors and the cheek teeth in most species. This allows rodents to suck in their cheeks or lips to shield their mouth and throat from wood shavings and other inedible material, discarding this waste from the sides of their mouths."
"In many species, the molars are relatively large, intricately structured, and highly cusped or ridged. Rodent molars are well equipped to grind food into small particles."
" Rodent groups differ in the arrangement of the jaw muscles and associated skull structures, both from other mammals and amongst themselves. The "
", such as the guinea pig, have larger superficial masseter muscles and smaller deep masseter muscles than rats or squirrels, possibly making them less efficient at biting with the incisors, but their enlarged internal pterygoid muscles may allow them to move the jaw further sideways when chewing."
" is a specific morphological feature used for storing food and is evident in particular subgroups of rodents like kangaroo rats, hamsters, chipmunks and gophers which have two bags that may range from the mouth to the front of the shoulders."
True mice and rats do not contain this structure but their cheeks are elastic due to a high degree of musculature and innervation in the region.
Volume rendering of a mouse skull (CT) using shear warp algorithm
", can weigh as much as 66 kg (146 lb), most rodents weigh less than 100 g (3.5 oz). The smallest rodent is the "
", which averages only 4.4 cm (1.7 in) in head and body length, with adult females weighing only 3.75 g (0.132 oz). Rodents have wide-ranging morphologies, but typically have squat bodies and short limbs."
", walking on both the palms and soles of their feet, and have claw-like nails. The nails of burrowing species tend to be long and strong, while arboreal rodents have shorter, sharper nails."
Rodent species use a wide variety of methods of locomotion including
" and having hoof-like nails. The majority of rodents have tails, which can be of many shapes and sizes. Some tails are "
Eurasian harvest mouse
", and the fur on the tails can vary from bushy to completely bald. The tail is sometimes used for communication, as when beavers slap their tails on the water surface or house mice rattle their tails to indicate alarm. Some species have vestigial tails or no tails at all."
Rodents generally have well-developed senses of
. Some rodents have
", which may be lined with fur. These can be turned inside out for cleaning. In many species, the tongue cannot reach past the incisors. Rodents have efficient digestive systems, absorbing nearly 80% of ingested energy. When eating "
elements. The rodent then practices
", eating its own fecal pellets, so the nutrients can be absorbed by the gut. Rodents therefore often produce a hard and dry fecal pellet."
" occurs in many rodent species. In some rodents, males are larger than females, while in others the reverse is true. Male-bias sexual dimorphism is typical for "
in a flowerbox: Some rodents thrive in human habitats.
"One of the most widespread groups of mammals, rodents can be found on every continent except Antarctica. They are the only terrestrial placental mammals to have colonized Australia and "
" Rodents have adapted to almost every terrestrial habitat, from cold "
but the rodent best-adapted for aquatic life is probably the
Rodents have also thrived in human-created environments such as
"Some rodents, like this "
"Though some species are common pests for humans, rodents also play important ecological roles."
Some rodents are considered
Burrowing rodents may eat the fruiting bodies of
" with the roots of plants (which usually cannot thrive without them). As such, these rodents may play a role in maintaining healthy forests."
" is a typical herbivorous rodent and feeds on grasses, herbs, root tubers, moss, and other vegetation, and gnaws on bark during the winter. It occasionally eats invertebrates such as insect larvae."
" fruit. Too many seeds are inside to be consumed in one meal, so the agouti carries some off and caches them. This helps dispersal of the seeds as any that the agouti fails to retrieve are distant from the parent tree when they germinate. Other nut-bearing trees tend to bear a glut of fruits in the autumn. These are too numerous to be eaten in one meal and squirrels gather and store the surplus in crevices and hollow trees. In desert regions, seeds are often available only for short periods. The kangaroo rat collects all it can find and stores them in larder chambers in its burrow."
"Although rodents have been regarded traditionally as herbivores, a number of species opportunistically include insects, fish, or meat in their diets and more specialized forms rely on such foods. A functional-morphological study of the rodent tooth system supports the idea that primitive rodents were omnivores rather than herbivores. Studies of the literature show that numerous members of the Sciuromorpha and Myomorpha, and a few members of the Hystricomorpha, have either included animal matter in their diets or been prepared to eat such food when offered it in captivity. Examination of the stomach contents of the North American "
" from dry regions of North America feeds on insects, scorpions, and other small mice, and only a small part of its diet is plant material. It has a chunky body with short legs and tail, but is agile and can easily overpower prey as large as itself."
Rodents exhibit a wide range of types of social behavior ranging from the mammalian
". Adult dormice may have overlapping feeding ranges, but they live in individual nests and feed separately, coming together briefly in the breeding season to mate. The "
Larger rodents tend to live in family units where parents and their offspring live together until the young disperse.
Brown rats usually live in small colonies with up to six females sharing a burrow and one male defending a
"Among the most social of rodents are the ground squirrels, which typically form "
Perhaps the most extreme examples of colonial behavior in rodents are the
naked mole rat and
". The naked mole rat lives completely underground and can form colonies of up to 80 individuals. Only one female and up to three males in the colony reproduce, while the rest of the members are smaller and sterile, and function as workers. Some individuals are of intermediate size. They help with the rearing of the young and can take the place of a reproductive if one dies."
" The Damaraland mole rat is characterized by having a single reproductively active male and female in a colony where the remaining animals are not truly sterile, but become fertile only if they establish a colony of their own."
"Nepotistic species such as house mice rely on urine, feces and glandular secretions to recognize their kin."
"Rodents use scent marking in many social contexts including inter- and intra-species communication, the marking of trails and the establishment of territories. Their urine provides genetic information about individuals including the species, the sex and individual identity, and metabolic information on dominance, reproductive status and health. Compounds derived from the "
Rodents are able to recognize close relatives by smell and this allows them to show
"House mice deposit urine, which contains pheromones, for territorial marking, individual and group recognition, and social organization"
"Many rodent species, particularly those that are diurnal and social, have a wide range of alarm calls that are emitted when they perceive threats. There are both direct and indirect benefits of doing this. A potential predator may stop when it knows it has been detected, or an alarm call can allow "
Social rodents have a wider range of vocalizations than do solitary species. Fifteen different call-types have been recognized in adult
", another social, burrowing rodent, exhibits a wide array of communication methods and has an elaborate vocal repertoire comprising fifteen different categories of sound."
"House mice use both audible and ultrasonic calls in a variety of contexts. Audible vocalizations can often be heard during agonistic or aggressive encounters, whereas ultrasound is used in sexual communication and also by pups when they have fallen out of the nest."
", and is interpreted as an expectation of something rewarding. In clinical studies, the chirping is associated with positive emotional feelings, and social bonding occurs with the tickler, resulting in the rats becoming conditioned to seek the tickling. However, as the rats age, the tendency to chirp declines. Like most rat vocalizations, the chirping is at frequencies too high for humans to hear without special equipment, so "
"Rodents, like all placental mammals except primates, have just two types of light receptive cones in their retina,"
" Ultraviolet light is abundant during the day but not at night. There is a large increase in the ratio of ultraviolet to visible light in the morning and evening twilight hours. Many rodents are active during twilight hours (crepuscular activity), and UV-sensitivity would be advantageous at these times. Ultraviolet reflectivity is of dubious value for nocturnal rodents."
"The urine of many rodents (e.g. voles, degus, mice, rats) strongly reflects UV light and this may be used in communication by leaving visible as well as olfactory markings."
can distinguish between old and fresh rodent trails and has greater success hunting over more recently marked routes.
" rodents bang their head against the walls of their tunnels.  This behavior was initially interpreted as part of their tunnel building behavior, but it was eventually realized that they generate temporally patterned seismic signals for long-distance communication with neighboring mole rats."
Footdrumming is used widely as a predator warning or defensive action. It is used primarily by fossorial or semi-fossorial rodents.
" The banner-tailed kangaroo rat produces several complex footdrumming patterns in a number of different contexts, one of which is when it encounters a snake. The footdrumming may alert nearby offspring but most likely conveys that the rat is too alert for a successful attack, thus preventing the snake's predatory pursuit."
The Cape ground squirrel is an example of a promiscuous rodent.
"Some species of rodent are monogamous, with an adult male and female forming a lasting "
" species, males will try to monopolize and mate with multiple females. As with monogamy, polygyny in rodents can come in two forms; defense and non-defense. Defense polygyny involves males controlling territories that contain resources that attract females. This occurs in ground squirrels like "
", in which both males and females mate with multiple partners, also occurs in rodents. In species such as the white-footed mouse, females give birth to litters with multiple paternities. Promiscuity leads to increased "
" Several rodent species have flexible mating systems that can vary between monogamy, polygyny and promiscuity."
"Female rodents play an active role in choosing their mates. Factors that contribute to female preference may include the size, dominance and spatial ability of the male."
"In most rodent species, such as brown rats and house mice, "
". During copulation, males of some rodent species deposit a "
Rodents may be born either
" (mostly furred, eyes open and fairly developed) depending on the species. The altricial state is typical for squirrels and mice, while the precocial state usually occurs in species like guinea pigs and porcupines. Females with altricial young typically build elaborate nests before they give birth and maintain them until their offspring are "
"In precocial species, the mothers invest little in nest building and some do not build nests at all. The female gives birth standing and the young emerge behind her. Mothers of these species maintain contact with their highly mobile young with maternal contact calls. Though relatively independent and weaned within days, precocial young may continue to nurse and be groomed by their mothers. Rodent litter sizes also vary and females with smaller litters spend more time in the nest than those with larger litters."
"Mother rodents provide both direct parental care, such as nursing, grooming, retrieving and huddling, and indirect parenting, such as food caching, nest building and protection to their offspring."
Infanticide exists in numerous rodent species
but less so in rodents.
" To protect against infanticide from other adults, female rodents may employ avoidance or direct aggression against potential perpetrators, multiple mating, territoriality or early termination of pregnancy."
can also occur among rodents; in
Kangaroo rats can locate food caches by spatial memory.
Rodents have advanced
Squirrels and kangaroo rats are able to locate caches of food by
Because laboratory mice (house mice) and rats (brown rats) are widely used as
" to further our understanding of biology, a great deal has come to be known about their cognitive capacities. Brown rats exhibit "
" For example, laboratory rats trained to respond to a specific tone by pressing a lever to receive a reward, and to press another lever in response to a different tone so as to avoid receiving an electric shock, are more likely to respond to an intermediate tone by choosing the reward lever if they have just been tickled (something they enjoy), indicating ""a link between the directly measured positive affective state and decision making under uncertainty in an animal model."""
Laboratory (brown) rats may have the capacity for
" but these findings are disputed, since the rats may have been following simple "
" Brown rats use social learning in a wide range of situations, but perhaps especially so in acquiring food preferences."
List of extinct rodents
rodents are recognized and the earliest record of such mammals comes from the
", a clade consisting of rodents and lagomorphs (rabbits, hares and pikas), from other placental mammals occurred within a few million years after the Cretaceous-Tertiary boundary; rodents and lagomorphs then "
data suggest modern rodents (members of the order Rodentia) had appeared by the late
"Rodents are thought to have evolved in Asia, where local "
" and never fully recovered, unlike their North American and European relatives. In the resulting ecological vacuum, rodents and other Glires were able to evolve and diversify, taking the niches left by extinct multituberculates. The correlation between the spread of rodents and the demise of multituberculates is a controversial topic, not fully resolved. American and European multituberculate assemblages do decline in diversity in correlation with the introduction of rodents in these areas, but the remaining Asian multituberculates co-existed with rodents with no observable replacement taking place, and ultimately both clades co-existed for at least 15 million years."
The history of the colonization of the world's continents by rodents is complex. The movements of the large superfamily
", a burrowing mammal of the late Miocene to early Pleistocene, is the only known horned rodent."
", rodents began to diversify. Beavers appeared in Eurasia in the late Eocene before spreading to North America in the late Miocene."
rodents are thought to have rafted from Africa to Madagascar 20–24 million years ago.
", when Africa had collided with Asia, African rodents such as the "
" Some fossil species were very large in comparison to modern rodents and included the giant beaver, "
The largest known rodent was
The first rodents arrived in Australia via Indonesia around 5 million years ago. Although
" There are about fifty species of 'old endemics', the first wave of rodents to colonize the country in the Miocene and early "
", and eight true rat ("
". The earliest fossil rodents in Australia have a maximum age of 4.5 million years,"
Rodents participated in the
" Their ""head start"" has relegated other North American rodent groups (sciurids, geomyids, heteromyids and nonsigmodontine cricetids) to a minor presence in the contemporary South American fauna.
"
" name ""Rodentia"" is attributed to the English traveler and naturalist "
" (order Lagomorpha) have continuously growing incisors, as do rodents, and were at one time included in the order. However, they have an additional pair of incisors in the upper jaw and the two orders have quite separate evolutionary histories."
The phylogeny of the rodents places them in the
. The cladogram below shows the inner and outer relations of Rodentia based on a 2012 attempt by Wu et al. to align the molecular clock with paleontological data:
The living rodent families based on the study done by Fabre et al. 2012.
"Rodentia classification
"
The order Rodentia may be divided into
" among rodents caused by the fact that they have tended to evolve to fill largely similar niches. This parallel evolution includes not only the structure of the teeth, but also the infraorbital region of the skull (below the eye socket) and makes classification difficult as similar traits may not be due to common ancestry."
" (1855) was the first to propose dividing Rodentia into three suborders, Sciuromorpha, Hystricomorpha and Myomorpha, based on the development of certain muscles in the jaw and this system was widely accepted. Schlosser (1884) performed a comprehensive review of rodent fossils, mainly using the cheek teeth, and found that they fitted into the classical system, but Tullborg (1899) proposed just two sub-orders, Sciurognathi and Hystricognathi. These were based on the degree of inflection of the lower jaw and were to be further subdivided into Sciuromorpha, Myomorpha, Hystricomorpha and Bathyergomorpha. Matthew (1910) created a "
" of New World rodents but did not include the more problematic Old World species. Further attempts at classification continued without agreement, with some authors adopting the classical three suborder system and others Tullborg's two suborders."
Reconstruction of the phylogenetic tree of Rodentia on the basis of their whole genomes
: jerboas and jumping mice
: mouse-like hamsters
New World rats and mice
": true mice and rats, gerbils, spiny mice, "
": climbing mice, rock mice, white-tailed rat, Malagasy rats and mice"
" (also Myoxidae, Muscardinidae): dormice"
"While rodents are not the most seriously threatened order of mammals, there are 168 species in 126 genera that are said to warrant conservation attention"
" in the face of limited appreciation by the public. Since 76 percent of rodent genera contain only one species, much phylogenetic diversity could be lost with a comparatively small number of extinctions. In the absence of more detailed knowledge of species at risk and accurate taxonomy, conservation must be based mainly on higher taxa (such as families rather than species) and geographical hot spots."
" The IUCN Species Survival Commission writes ""We can safely conclude that many South American rodents are seriously threatened, mainly by environmental disturbance and intensive hunting""."
"The ""three now cosmopolitan commensal rodent pest species"""
" and the house mouse) have been dispersed in association with humans, partly on sailing ships in the "
", and with a fourth species in the Pacific, the Polynesian rat ("
" around the world. For example, when the black rat reached "
(1962). Conservation projects can with careful planning completely eradicate these pest rodents from islands using an
rodenticide such as
" in the United Kingdom, where the eradication of an estimated 40,000 brown rats is giving populations of "
"At least 89 species of rodent, mostly Hystricomorpha such as guinea pigs, agoutis and capybaras, are eaten by humans; in 1985, there were at least 42 different societies in which people eat rats."
". Dormice were raised by the Romans in special pots called ""gliraria"", or in large outdoor enclosures, where they were fattened on walnuts, chestnuts, and acorns. The dormice were also caught from the wild in autumn when they were fattest, and either roasted and dipped into honey or baked while stuffed with a mixture of pork, pine nuts, and other flavorings. Researchers found that in Amazonia, where large mammals were scarce, pacas and common agoutis accounted for around 40 percent of the annual game taken by the indigenous people, but in forested areas where larger mammals were abundant, these rodents constituted only about 3 percent of the take."
Laboratory house mouse
Rodents are used widely as
" Nowadays, the house mouse is the most commonly used laboratory rodent, and in 1979 it was estimated that fifty million were used annually worldwide. They are favored because of their small size, fertility, short gestation period and ease of handling and because they are susceptible to many of the conditions and infections that afflict humans. They are used in research into "
The naked mole rat is the only known mammal that is
"Rodents have sensitive olfactory abilities, which have been used by humans to detect odors or chemicals of interest."
" Rats have been studied for possible use in hazardous situations such as in disaster zones. They can be trained to respond to commands, which may be given remotely, and even persuaded to venture into brightly lit areas, which rats usually avoid."
"Rodents including guinea pigs,"
" mice, rats, hamsters, gerbils, chinchillas, degus and chipmunks make convenient pets able to live in small spaces, each species with its own qualities."
" Rats also need plenty of space and can become very tame, can learn tricks and seem to enjoy human companionship. Mice are short-lived but take up very little space. Hamsters are solitary but tend to be nocturnal. They have interesting behaviors, but unless handled regularly they may be defensive. Gerbils are not usually aggressive, rarely bite and are sociable animals that enjoy the company of humans and their own kind."
"Rodents cause significant losses to crops, such as these potatoes damaged by "
Some rodent species are serious agricultural
" lost to mice and rats in Asia was estimated to be enough to feed 200 million people. Most of the damage worldwide is caused by a relatively small number of species, chiefly rats and mice."
" In Indonesia and Tanzania, rodents reduce crop yields by around fifteen percent, while in some instances in South America losses have reached ninety percent. Across Africa, rodents including "
" damage cereals, groundnuts, vegetables and cacao. In Asia, rats, mice and species such as "
" damage crops of rice, sorghum, tubers, vegetables and nuts. In Europe, as well as rats and mice, species of "
" cause damage to orchards, vegetables and pasture as well as cereals. In South America, a wider range of rodent species, such as "
Rodents are also significant vectors of disease.
A number of rodents carry
Rodents also help to transmit diseases including
"Rodent Bait Station, "
Because rodents are a nuisance and endanger
" has the drawback that they can infect man and domestic animals, and rodents often become resistant. The use of predators including "
" are able to control rodents effectively, provided the rodent population is not too large."
" In the UK, two species in particular, the house mouse and the brown rat, are actively controlled to limit damage in growing crops, loss and contamination of stored crops and structural damage to facilities, as well as to comply with the law."
Mouse models of breast cancer metastasis
", mice who orbited the Moon on "
"Single, G.; Dickman, C. R.; MacDonald, D. W. (2001). ""Rodents"".  In MacDonald, D. W. (ed.). "
"""Introduction to the Rodentia"""
"Schulte-Hostedde, A. I. (2008). ""Chapter 10: Sexual Size Dimorphism in Rodents"".  In Wolff, Jerry O.; Sherman, Paul W. (eds.). "
Rodent Societies: An Ecological and Evolutionary Perspective
"Helgen, Kristofer M. (2005). ""The amphibious murines of New Guinea (Rodentia, Muridae): the generic status of "
"""Rodent control in India"""
"Pérez, Francisco; Castillo-Guevara, Citlalli; Galindo-Flores, Gema; Cuautle, Mariana; Estrada-Torres, Arturo (2012). ""Effect of gut passage by two highland rodents on spore activity and mycorrhiza formation of two species of ectomycorrhizal fungi ("
" (Rodentia: Geomyidae)"". "
The Mammals of Texas: Rodents
"Landry, Stuart O. Jr. (1970). ""The Rodentia as omnivores"". "
"""Northern grasshopper mouse"""
"""Wild Norway rat behavior"""
"""Scent marking behavior as an odorant communication in mice"""
"""Chapter 19: Kin Recognition in Rodents: Issues and Evidence"""
"""Comfortable quarters for mice in research institutions"""
"Shelley, Erin L.; Blumstein, Daniel T. (2005). ""The evolution of vocal alarm communication in rodents"". "
" (Bathyergidae, Rodentia)"". "
"), a social caviomorph rodent"". "
"Ancillotto, Leonardo; Sozio, Giulia; Mortelliti, Alessio; Russo, Danilo (2014). ""Ultrasonic communication in Gliridae (Rodentia): the hazel dormouse ("
"Laughing"" rats and the evolutionary antecedents of human joy?"". "
"Haverkamp, Silke; Waessle, Heinz; Duebel, Jens; Kuner, Thomas; Augustine, George J.; Feng, Guoping; Euler, Thomas (2005). ""The primordial, blue-cone color system of the mouse retina"". "
"""Urine vision? How rodents communicate with UV light"""
"Desjardins, C.; Maruniak, J. A.; Bronson, F. H. (1973). ""Social rank in house mice: Differentiation revealed by ultraviolet visualization of urinary marking patterns"". "
"Randall, Jan A.; Matocq, Marjorie D. (1997). ""Why do kangaroo rats ("
"Waterman, Jane (2008). ""Chapter 3: Male Mating Strategies in Rodents"".  In Wolff, Jerry O.; Sherman, Paul W. (eds.). "
"Soloman, Nancy G.; Keane, Brain (2008). ""Chapter 4: Reproductive Strategies in Female Rodents"".  In Wolff, Jerry O.; Sherman, Paul W. (eds.). "
"Holmes, Warren G.; Mateo, Jill M. (2008). ""Chapter 19: Kin Recognition in Rodents: Issues and Evidence"".  In Wolff, Jerry O.; Sherman, Paul W. (eds.). "
"""Laughing rats are optimistic"""
"""How do rats choose what to eat?"""
"Douzery, E. J. P.; Delsuc, F.; Stanhope, M. J.; Huchon, D. (2003). ""Local molecular clocks in three nuclear genes: divergence times for rodents and other mammals and incompatibility among fossil calibrations"". "
"""Phylogenetic analyses of complete mitochondrial genome sequences suggest a basal divergence of the enigmatic rodent "
"""Ecological opportunity and incumbency in the diversification of repeated continental colonizations by muroid rodents"""
"""The evolution of fossoriality and the adaptive role of horns in the Mylagaulidae (Mammalia: Rodentia)"""
" (Rodentia, Hystricognathi) from the late middle Eocene of Djebel el Kébar, Central Tunisia"""
"Vélez-Juarbe, Jorge; Martin, Thomas; Macphee, Ross D. E. (2014). ""The earliest Caribbean rodents: Oligocene caviomorphs from Puerto Rico"". "
"""The largest fossil rodent"""
Native Mice and Rats
"""The Action Plan for Australian Rodents"""
"Rowe, K. C.; Reno, M. L.; Richmond, D. M.; Adkins, R. M.; Steppan, S. J. (2008). ""Pliocene colonization and adaptive radiations in Australia and New Guinea (Sahul): multilocus systematics of the old endemic rodents (Muroidea: Murinae)"". "
"Smith, Margaret F.; Patton, James L. (1999). ""Phylogenetic relationships and the radiation of Sigmodontine rodents in South America: evidence from cytochrome b"". "
"Parada, A.; Pardiñas, U. F. J.; Salazar-Bravo, J.; D’Elía, G.; Palma, R. E. (March 2013). ""Dating an impressive Neotropical radiation: Molecular time estimates for the Sigmodontinae (Rodentia) provide insights into its historical biogeography"". "
"""Molecular and paleontological evidence for a post-Cretaceous origin of rodents"""
"""A glimpse on the pattern of rodent diversification: a phylogenetic approach"""
"Wood, Albert E. (1955). ""A Revised Classification of the Rodents"". "
"Wood, Albert E. (1958). ""Are there rodent suborders?"". "
"""Rodents (Rodentia)"""
"""A higher-taxon approach to rodent conservation priorities for the 21st century"""
"""Rodent Conservation Assessment"""
"Rodents: A World Survey of Species of Conservation Concern: Based on the Proceedings of a Workshop of the IUCN/SSC Rodent Specialist Group, Held at the Fourth International Theriological Congress, August 17, 1985, Edmonton, Alberta, Canada"
"""Rodent Control in the Conservation of Endangered Species"""
"""Rodents as a Food Source"""
The Laboratory Rat (Handbook of Experimental Animals)
"""The Laboratory Mouse: A Historical Assessment"""
"The Mouse in Biomedical Research: History, Genetics, and Wild Mice"
The Biology and Medicine of Rabbits and Rodents
"Sherwin, C. M. (2010). ""25: The Husbandry and Welfare of Non-traditional Laboratory Rodents"".  In Hubrecht, R.; Kirkwood, J. (eds.). "
"""Gambian rodents risk death for bananas"""
"""Giant rats trained to detect land mines and tuberculosis in Africa"""
"""Scientists ""Drive"" rats by remote control"""
Gerbil Pets and Other Small Rodents
"Meerburg, B. G.; Singleton, G. R; Leirs, H. (2009). ""The Year of the Rat ends: time to fight hunger!"". "
"Stenseth, Nils Chr; Leirs, Herwig; Skonhoft, Anders; Davis, Stephen A.; Pech, Roger P.; Andreassen, Harry P.; Singleton, Grant R.; Lima, Mauricio; Machang'u, Robert S.; Makundi, Rhodes H.; Zhang, Zhibin; Brown, Peter R.; Shi, Dazhao; Wan, Xinrong (2003). ""Mice, rats, and people: The bio-economics of agricultural rodent pests"". "
"Meerburg, B. G.; Singleton, G. R.; Kijlstra, A. (2009). ""Rodent-borne diseases and their risks for public health"". "
"""Rodent-borne diseases"""
"""Diseases indirectly transmitted by rodents"""
Integrated pest management: conducting urban rodent surveys
"""Prospects for biological control of rodent populations"""
"""Rodent control in agriculture – an HGCA guide"""
"Carleton, M. D.; Musser, G. G. ""Order Rodentia"", pages 745–752 in Wilson & Reeder (2005)."
ArchéoZooThèque : Rodent osteology
ArchéoZooThèque : Rodent skeleton drawings
Rodent Species Fact Sheets
" on Deer Mice, Norway Rats, and other rodent species"
"(Kangaroo rats and mice, pocket mice)"
"(Jerboas, jumping mice and birch mice)"
(Mouse-like hamsters)
(Malagasy rats and relatives)
(House mouse and relatives)
(Spiny rats and coypus)
https://en.wikipedia.org/w/index.php?title=Rodent&oldid=913435449
