   ,text
0  ,b'kissing my neck and my pet mouse'
1  ,b'so i guess i have a pet mouse now lol'
2  ,b'@RobinAChilds You could... you could pet dog with mouse...'
3  ,b'#hashtag2 Baby Toys RC Funny Wireless Electronic Remote Control Mouse Rat Pet Toy for Cats Funny Toys For Girl Boy https://t.co/wiralKgx3w https://t.co/K8iWwLxG07'
4  ,"b'New trending GIF on Giphy. Find what is trending on Amazon: https://t.co/VNUePZcSmi . Tags: cute, adorable, mouse, mice, little mouse, pet mouse https://t.co/A3gQGRLUqk'"
5  ,"b""My pet mouse 'Elvis' died last night. He was caught in a trap.."""
6  ,"b'Vintage Brass Mice, Pair of Solid Brass Mid Century Mouse Friends, Pet Lover Gift https://t.co/52r1LkKmvc #TuesdayMotivation #TuesdayThoughts #vintageRetro #TuesdayMorning #VintageAddict #etsyvintage #VintageLove https://t.co/yu61irHfm7'"
7  ,b'@LifeofAliii It\xe2\x80\x99s her pet mouse\xf0\x9f\x98\x82\xf0\x9f\x98\x82\xf0\x9f\x98\x82'
8  ,b'@AdamCSharp I would like a pet flutter mouse.'
9  ,b'My hobby is caring for animals. I happen to have a mouse with me right now in fact. Would you like to pet him?'
10 ,"b'@Koena_za Horse, cow, pig, rabbits. Cat and mouse. 6'"
11 ,b'@MalvagioMarco mouse is a gender neutral pet name &lt;3'
12 ,b'My pet mouse Elvis died today... caught in a trap'
13 ,"b'https://t.co/FnF6wlBKjD Room Ideas: cute, adorable, mouse, mice, little mouse, pet mouse https://t.co/1tX0pCjpO2'"
14 ,"b'New trending GIF tagged cute, adorable, mouse, mice, little mouse, pet mouse via Giphy https://t.co/Zrr315jbv7 https://t.co/Ej8WRMoy7W'"
15 ,"b'New trending GIF tagged cute, adorable, mouse, mice, little mouse, pet mouse via Giphy https://t.co/s2cVh66TBe https://t.co/lviEF5cCu3'"
16 ,"b'Mouse Necklace, Wire Wrapped Pendant, Pet Trinket, Copper Wearable Art, Ruby Jewellery https://t.co/prOccTtgIh via @Etsy\n#etsyclub\n#etsyuk\n#mouse\n#handmade\n#craftbuzz'"
17 ,"b'there was a field mouse stuck on a glue trap at my aunts house and i forced my mom to help me save him, which she didn\xe2\x80\x99t want to do at all and now she wants to keep the little nigga as a pet.. girl'"
18 ,b'If anyone needs a free pet mouse. I got some at my house. You just gotta catch them and they\xe2\x80\x99re all yours \xf0\x9f\x98\x9e\xe2\x9c\x8a\xf0\x9f\x8f\xbc'
19 ,b'This is my friend @tiamaria1127\xe2\x80\x99s new pet mouse. His name is Archie https://t.co/SLMpkLm7Wm'
20 ,b'@pet_mouse dont waste ur time on me ur already the voice in side my ed~ \xe2\x99\xa5 \xe2\x9d\xa5'
21 ,b'Met a new friend at work orientation today! She was super sweet and we went for a nice stroll while having a chat. Out of nowhere she stopped talking to me to PICK UP A LIVE MOUSE... WITHOUT HESITATION... PET IT and then MOVE IT OFF OF THE SIDEWALK to safety.'
22 ,b'@thicccy_mouse @animeb00bz R u kidding me? Owning a pet cow you love and care for is how god intended. CUE RANGE LIFE BY PAVEMENT. No farm factories \xf0\x9f\x98\xa4'
23 ,"b""I happen to have a mouse with me right now. Would you like to pet him? I'm sure he would like that very much."""
24 ,b'Know anyone who takes their pet mouse on holiday? This card is perfect for them!\n\nhttps://t.co/PRnda4YQVZ\n\n#JeffreyElefante #GreetingCards #redelephant #Elephants #Jokes #puns #etsy #holiday #mouse #vacation #mice'
25 ,b'where are u........and i\xe2\x80\x99m so sorry....\xf0\x9f\x98\x94 https://t.co/7N1lNZ8A3W'
26 ,"b'It\xe2\x80\x99s be a lil considerate if you step, kick or shoot the fucking mouse tryna attack your pet. https://t.co/ji1Nrpd9U7'"
27 ,b'@animeb00bz @thicccy_mouse I want a pet cow (or 4) named Noam chompsky and to make homemade cinnamon toast crunch ice cream'
28 ,b'@aldurty bust'
29 ,b'My hobby is caring for animals. I happen to have a mouse with me right now in fact. Would you like to pet him?'
30 ,"b'i walked in the kitchen and heard my bf scream ""what the fuck?!"" and well, now we have a pet baby mouse \xf0\x9f\x90\xad'"
31 ,"b'@FartyCheddarCat @TaziKat No. He had a pet mouse once, and he loved her so, but he got jealous when I paid attention to her.'"
32 ,"b""@RoryTheVet Vets are only human so you guys will get affected from time to time. It shows you care and i would rather a vet who cared than one who couldn't be arsed. I lost a pet mouse to a vet who a vet who couldn't see my mouse was just as important to me as my dog."""
33 ,b'a hard lesson I had learned from having a pet boa was when I had held a small white living mouse too long and the snake wrapped my hand with the mouse.  I could feel the snake constrict each time the mouse... https://t.co/aaZp8PnpJe'
34 ,"b'@HasegawaSona ""Ormr is a dragon. I know Dragons can be hard to raise but they\'re all sorts of cute when they\'re small!""\n\nReina is frowning a bit, keeping her hand still for the shy little fake Mouse ghost to come close. She wants to give the little one a pet!'"
35 ,"b'https://t.co/jK1A7TkdGB\nExcited to share the latest addition to my #etsy shop: Cat Toy, Catnip Mouse, Mouse With Bell, Multicolored, Crocheted, Pet Toy, Organic Cat Nip, Pet Accessory #cattoy #catniptoy\xe2\x80\xa6 https://t.co/9iOkdSxiaP'"
36 ,"b'https://t.co/jK1A7TkdGB\nExcited to share the latest addition to my #etsy shop: Catnip Toy Mouse, Mouse With Bell, Pink, Crocheted, Pet Toy, Organic Cat Nip, Pet Accessory #cattoy #pets #toy #pink #catnipcattoy\xe2\x80\xa6 https://t.co/hQHVeMHNi8'"
37 ,"b""I've inherited a pet mouse from a co-worker. Pics to come! https://t.co/kuvD1qgkQB"""
38 ,b'Yogurt Drops https://t.co/nxxKMtakfz #rat #rats #ratfood #rattreats #rattie #ratsofig #ratsofinstagram #ratsoftwitter #ratties #dumborats #petrat https://t.co/2fneSA8PMv'
39 ,b'i hate it when my pet mouse gets into my  spectacles collection'
40 ,b'Am I handsome?\n\nGive me a \xe2\x9d\xa4\xef\xb8\x8f\n\n#hamster #pets #pet #cute #little #tiny #brown #mouse https://t.co/1erHDwJKn6'
41 ,"b'With 4 hooks can be arbitrarily hung on the cage\nA good playground/activity centre for your parrot/Rat/Mouse/Hamster to enjoy,\nConnects to cage easily with quick-link attachment [...]Read More... - https://t.co/SQpldsUEct - #OffersTree #Amazon #Discount'"
42 ,b'Which pet would you choose?\nA dog\nB raven\nC mouse\nD mudblood'
43 ,b'2018 New Pet Cat Toy Mouse Shape Cloth Toy Rainbow Color Interactive Toy #NE802 USD 0.80\nhttps://t.co/XX1M4GDx3T https://t.co/0VoiTtkVg8'
44 ,b'landlords will rent you the house from Monster House and tell you you can\xe2\x80\x99t have a pet mouse'
45 ,b'Pet Dog Cat Cozy Dome Bed With Inner Cushion Coverage Shelter Black Mickey Mouse Act at Once $59.99 #shelterdog #catdog #dogshelter https://t.co/35fQaXKRZH https://t.co/trpG7kWo1k'
46 ,b'Ughhh please help me get my pet mouse in #NewYorkFashionWeek  he really wants 2 walk #vaqueranyc @takashipom @awakenyclothing'
47 ,b'also today i ran up to my sisters room to visit her pet mouse only to discover HE JUST DIED'
48 ,b'Which pet would you choose?\nA mongoose\nB crow\nC mouse\nD house elf'
49 ,"b""@miiukkaa @goatanarchy69 I spy a little pet mouse! did you give him the 'urchin' background, by chance?"""
50 ,"b""Mouse #9 or #10? I lost count. I felt so bad putting this one outside. He was the cutest and possibly the smallest out of all of them. Would have kept it as a pet, but I've got two hungry kitties. Hope you survive little dude. \xf0\x9f\x98\xa2 https://t.co/GmY04Kg29d"""
51 ,"b'FOUND: OTHER - BROWN, MOUSE, 1 YR OLD, UNALTERED FEMALE AT 1909 VILLA PALMS CT\nhttps://t.co/YmKVZKvOoe'"
52 ,b'time to sleep have a photo of this mouse I saw at pet smart https://t.co/wQwR7OJN4Q'
53 ,"b""@taeyngani no the mouse isn't my pet, it was supposed to be food. i accidentally dropped it in our common room and it ran out into the halls somewhere.."""
54 ,b'@hyuckani wait- where did you last see it? i thought you meant that mouse was your pet-'
55 ,"b'FOUND: OTHER - BROWN, MOUSE, 1 YR OLD, UNALTERED MALE AT 1909 VILLA PALMS CT\nhttps://t.co/Rs9ucQqN25'"
56 ,"b'FOUND: OTHER - BROWN, MOUSE, 1 YR OLD, UNALTERED FEMALE AT 1909 VILLA PALMS CT\nhttps://t.co/hBJYdBUJHA'"
57 ,b'everybody surprised the lions suck lmao'
58 ,"b'FOUND: OTHER - BROWN, MOUSE, 1 YR OLD, UNALTERED MALE AT 1909 VILLA PALMS CT\nhttps://t.co/u8jAkFL8z9'"
59 ,"b'FOUND: OTHER - BROWN, MOUSE, 1 YR OLD, UNALTERED FEMALE AT 1909 VILLA PALMS CT\nhttps://t.co/UZBUBdL1bB'"
60 ,b'@nailyeet @kayanneqt Im laughing that she had a mouse for a pet'
61 ,"b""| This day hasn't been sunshine and sprinkles for me. First, my pet mouse Frito passed away and that fucking NYC roach KENNETH DAY DECIDED TO PIN ON MY FUCKING TWEET OBVIOUSLY NOT GIVING ANY FUCKS"""
62 ,b'@mrgipson @ilium55 Fuck yeah Contact.  My pet mouse as a kid was named Carl Sagan'
63 ,"b'#KHUXJP 09/09~09/15@23:59JST\nThis week\xe2\x80\x99s premium quests!\n- x100 Power Gems, x10 Speed/Magic Gems\n-Argyle Mickey Mouse Pouch (Skill Perk +6) &amp; Head KHIII Kairi A pet part\n-SB+ KHIII Lich medal (available in Premium Quests until 09/30)\n-Dual Meow Wow &amp; more!\nhttps://t.co/9zl7Cs9xsY https://t.co/7mgEQBYLTs'"
64 ,"b'@KIMKlt61 Oh don\xe2\x80\x99t get me wrong, I DONT KILL BUGS, I RUN FROM THEM! \xf0\x9f\x98\x82\xf0\x9f\xa4\xa3. Which is why I have A Grandson , he has been my hero many a times!  Once we had a mouse \xf0\x9f\x90\x81, my cat chased it all over but I would NOT let her kill it, hence our pet mouse Charlie! \xf0\x9f\xa4\xa6\xe2\x80\x8d\xe2\x99\x80\xef\xb8\x8f'"
65 ,b'my boyfriend is my pet mouse and my pet mouse is my boyfriend'
66 ,"b""Ladies, if your man:\n\n- is related to pet\n- has four legs\n- can look at a king\n- can corner a mouse\n- can be found in a table\n\nHe's not your man. He's a cat."""
67 ,"b'Zazzle has 50% off dozens of Custom Gifts, including calendars, magnets, mouse pads, cases, hats, flyers, pet bowls, tumblers and more.  https://t.co/xnK1QKjqbL https://t.co/mOSznXXUT2'"
68 ,"b'18.) a pet mouse, a sun hat, and my stuffed beagle, conkey!'"
69 ,b'Plush Simulation Mouse Cat Toy Rat Squeak Noise Sound Pet Cat Kitten Dog Playing Toy Cats feeding animals 3pcs/set USD 1.92\nhttps://t.co/DUeeNWW04u https://t.co/ynOdvwsctX'
70 ,b'i can be your angle............or yuor devil https://t.co/eAfcVIDlec'
71 ,b'@StevenWoahdick what else was he right about \xf0\x9f\x91\x80'
72 ,"b'So like I have a pet mouse now \nI didn\xe2\x80\x99t adopt/buy him but \nIt came from outside &amp; he kinda chills in my room when I\xe2\x80\x99m not home and probably when I\xe2\x80\x99m sleeping \nIt just kinda runs out of my room when I\xe2\x80\x99m home.  So yea, if I end up dying from some sickness.  U guys know whats up'"
73 ,b'Who tf gets a pet mouse \xf0\x9f\x98\x82\xf0\x9f\x98\x82\xf0\x9f\x98\x82'
74 ,"b'""Have you ever feared what\xe2\x80\x99s in the #crawlspace under your house? Every home has #secrets. A #mouseygirl moves into a house with a pet mouse to uncover the secrets hiding there.""\nFull #MovieReview : https://t.co/TtAoU59G0w\n#horror #BuffaloDreams #independentfilm #filmfestival https://t.co/Vg8VD9NnOT'"
75 ,"b""When your cat brings you a dead bird or mouse etc, pet them with a friendly voice as if you would love their gift.\nAs soon as they don't look, remove the dead animal x3\n\nThey won't stop hunting just because you shout at them but will love you even more, when you take it xD"""
76 ,"b""So at my college you can't have a pet hamster or mouse, but you can have a fucking bird????"""
77 ,"b'My cat brought a LIVE mouse into our house last night, dropped it, and accidentally let it run away. So now we have a new unintentional pet'"
78 ,b'they cal me sticks cuz i be choppin\xe2\x80\x99 https://t.co/1bWklSjF0Z'
79 ,"b""Cat Automatic Pop- N' Play Interactive Motion Mouse Tease Electronic Pet Toy US https://t.co/L33NAUrkm4 https://t.co/hKfef38fw9"""
80 ,b'it chapter 2 was pretty lit'
81 ,"b'https://t.co/jK1A7TkdGB\nExcited to share the latest addition to my #etsy shop: Catnip Toy Mouse, Mouse With Bell, Beige with Stripes, Crocheted, Pet Toy, Organic Cat Nip, Pet Accessory #pets #toy #catnipcattoy\xe2\x80\xa6 https://t.co/wHysNHdeek'"
82 ,"b'the same person tells us stories about her pet fish and how she cried when her pet mouse died, the same girl who told us how she got her scar from her leg racing with her bestfriend Vanessa down to the hallway. the same girl who sang to the top of her lungs to beyonce. https://t.co/b80SlafwbN'"
83 ,"b""@WhiteCoatWaste @RepMattGaetz That's a House Mouse, the same type sold to families for pets.  You could use no graphic to get your point across, as kids shouldn't see abuse of pet animals."""
84 ,"b'@JoeMerrick I love the pet theme he has for this team this time around.\n\nA mouse, a bird, a dog, a cat, and a buff hex nut.'"
85 ,b'@Mcphie00 I wouldn\xe2\x80\x99t trust them with the dead mouse my cat drug in through his pet door...'
86 ,"b'Vintage Brass Mice, Pair of Solid Brass Mid Century Mouse Friends, Pet Lover Gift https://t.co/52r1LkKmvc #WeekendMotivation #vintageRetro #SundayMotivation #SundayThoughts #WeekendVibes #SundayMorning #etsyvintage https://t.co/yu61irHfm7'"
87 ,"b""I happen to have a mouse with me right now. Would you like to pet him? I'm sure he would like that very much."""
88 ,"b'Adopt a pet: Mouse, Cuddles and Marigold all need a new home, can you help? https://t.co/dR3GckRUxi https://t.co/6W7xn1jixw'"
89 ,"b'4 little sun gods \xe2\x98\x80\xef\xb8\x8f\xe2\x98\x80\xef\xb8\x8f\xe2\x98\x80\xef\xb8\x8f\xe2\x98\x80\xef\xb8\x8f Max, Ron, Twinkle &amp; Mouse #pug #pugs #puppy #pugsofinstagram #instagood #dog #dogs #love #animal #pet #rescuedog #bubblebeccapugs https://t.co/pNIbuHRPyj'"
90 ,b'Pet Dog Cat Cozy Dome Bed With Inner Cushion Coverage Shelter Black Mickey Mouse Best Ever ! $59.99 #shelterdog #catdog #sheltercat https://t.co/35fQaXth89 https://t.co/XgEitymfY1'
91 ,b'i want a pet mouse so i have someone to share my cheez-it\xe2\x80\x99s with'
92 ,b'i want a pet rat named mouse'
93 ,b'My hobby is caring for animals. I happen to have a mouse with me right now in fact. Would you like to pet him?'
94 ,b'My name is Nu Mikitakazo Nshi. I am 216 years old. My occupation is a spaceship pilot. My hobby is having pets. I\xe2\x80\x99m even currently carrying a house mouse in my bag. It is very happy when I pet its back.'
95 ,"b'she was originally supposed to be a feeder mouse but i took her home as a pet to give her a second chance and she had a big tank with my 3 other mice, she had ladders and tunnels a wheel and a little hide so i\xe2\x80\x99m glad i was able to give her a good life, albeit a short one'"
96 ,"b'@CatImprisonment \xe2\x80\x9cYou\xe2\x80\x99re making it sound as though I\xe2\x80\x99m the pet. Am I going to be told to get the toy mouse next?,\xe2\x80\x9d\n\nShe teased.\n\n\xe2\x80\x9cAs for food, what is it that you\xe2\x80\x99d like? I have plenty of things around here... just tell me what it is you want.\xe2\x80\x9d'"
97 ,"b""https://t.co/g1eCWKPb3f I am very playful and love my toy mouse! My favorite thing to do is to sit on your lap while watching TV! Wouldn't you like to snuggle with me? https://t.co/pj0oXVwAkV"""
98 ,b'@Purina presents today\xe2\x80\x99s Five O\xe2\x80\x99clock Cuteness: Mouse! This little pup is bounded with sister Trixie. They love to cuddle and are good with dogs and cats. Learn more about Mouse here: https://t.co/hmZrP9aq0a\n\n#adoptapetcom #adoptapet #rescue #adoptdontshop #savethemall https://t.co/42XP6UNW9v'
99 ,"b'@Chaiveon Intruiging, usually snakes prefer the mouse. \xf0\x9f\x98\x89 Awesome pet name with the pics btw!'"
100,"b'And Zira is like ""no it\'s fine if you\'re here it\'ll be fine"" and they just. Wait for C\'thindah to wake up. At some point a mouse crawls out of their satchel and Raina nearly passes the fuck out like ""oh SHIT a RAT"" but Zira is like ""cute"" and goes to pet it and then C wakes up'"
101,b'He has a pet mouse? Erin likes guys who are good to animals.'
102,b'RC Funny Wireless Electronic Remote Control Mouse Rat Pet Toy #toyrevolution #vintage #hobby #comics #handmade #diecast #batman #toyshive https://t.co/cfjwZ1cUB0 https://t.co/PyxNya563G'
103,b'@clareMALONG @JasminetheJag i think u find ur pet now n he want eat ur mouse panels on screen LoL'
104,"b'Mother Nature has spoken. This is @18Dubois \xe2\x80\x98s year. \n\nthat is not a pet mouse btw, I spent an hour plus chasing and eventually trapping it for re-release \xf0\x9f\x99\x83 https://t.co/YeeFrQY9V8'"
105,"b""@JoshTheMedic I'd catch the mouse and take care of it, as in, adopt it as a house pet. I find mice adorable...\n\n...yeah I guess that wouldn't help you much \xf0\x9f\x98\x82\xf0\x9f\x98\x82\xf0\x9f\x98\x82"""
106,b'Mike saw a mouse today. Didn\xe2\x80\x99t find it amusing when I asked him if we could keep it as a pet since he won\xe2\x80\x99t let me get a kitty. (WHICH WOULD GET RID OF THE MOUSE!)'
107,b'Tag a friend. What\xe2\x80\x99s yours? Theirs? Play https://t.co/fyETHJvpDs\n\n#instagood #happy #picoftheday #art #instadaily #friends #fun #smile #like #game #college #truth #truthordare #mouse #rat #pet #nature #naturepic #naturevid #video #rock #petrock #chameleon #lizard #earth #petlover https://t.co/Wvhw0c19EB'
108,b'1pcs Little Mouse Cat Toy Realistic Sound Pet Toys Mice For Cats Gatos Toys Mouse Products Gatos ... - https://t.co/aX5Vmkp3wo https://t.co/gi94pVhOuX'
109,"b""@jobrosooc @girlwithlu_V I'm the kind of guy who likes to bounce. I'm the kind of guy who has a pet mouse."""
110,"b""ngl I'd actually rlly like to have a pet mouse, I've had other rodents before but like idk I've always wanted a mouse I think they're just neat lil fellas"""
111,"b""She's got a mouse under the right eye? Wtf? Surely she coulda left her pet at home. #UFC242"""
112,"b'It seems like the recumbent trike is a good wildlife support vehicle. Or maybe I just notice more than other people, like when I found the stray pet mouse &gt;&gt; https://t.co/aHqsjXGhQV'"
113,b'Why the fuck would you adopt a mouse for a son when you have a cat for a pet?'
114,"b'Vintage Brass Mice, Pair of Solid Brass Mid Century Mouse Friends, Pet Lover Gift https://t.co/52r1LkKmvc #FridayMotivation #WeekendMotivation #etsyvintage #FridayVibes #WeekendVibes #VintageShopping #FridayMorning https://t.co/yu61irHfm7'"
115,"b""@IMSARadio my 10 year old's pet mouse watches IMSA. https://t.co/VpalD25mt1"""
116,"b'Onion owns a pet snake, which he tries to get Steven to feed a mouse found in his room.'"
117,b'@seven4liberty \xf0\x9f\x98\x82 my cats do that. I\xe2\x80\x99ve got a humane trap for them I got from amazon. Put a little chocolate in there and mice pet will be free in no time you don\xe2\x80\x99t even have to touch the mouse just open the little attachment of the trap \xf0\x9f\x91\x8d\xf0\x9f\x8f\xbb'
118,"b""Title: Some doubts about human-centered design\n\n\xf0\x9f\x92\xac: It's an interesting topic, but my pet peeves are the apparent lack of the way to interact with the outside world. \nWhat we have today in our current form is a new way of interact with things. Instead of using a mouse or\xe2\x80\xa6"""
119,"b'New post: Buckle-Down \xe2\x80\x9cMinnie Mouse Polka Dot/Mini Silhouette\xe2\x80\x9d Plastic Clip Collar, Red/White, 1\xe2\x80\xb3/15-26\xe2\x80\xb3/Large https://t.co/OLwKpRwjWk'"
120,"b""Me: I see you got the bird a pet mouse?\nGF: Uhh no I didn't? \nMe: .....\n\nScrew it, I'm not confessing anymore."""
121,"b'Why is my cat, Rexie, bringing in her own pets? She brought a mouse into the house, through her own door and set it free. I had to have the talk with her again to remind her that she is not allowed to have her own pet. Oh my goodness. I cannot find the mouse now. Mercy me.'"
122,b'#life #getoutside #amazing Catch The Mouse Motion Cat Toy Funny Cat Toys Original Design Pet Amusement Plate Interactive Toys Great Gift for Cat https://t.co/z3YGe2aEwx https://t.co/gfI9oYkdTj'
123,b'i love how my pet snake is always grumpy and hiding under her rock but after i feed her she keeps poking her head out and doesn\xe2\x80\x99t mind me being nearby :-) i know she\xe2\x80\x99s being defensive cuz she has a mouse in her tummy but it\xe2\x80\x99s cute 2 me'
124,"b'The mouse cursor is constantly visible so I always have to see it when I\xe2\x80\x99m moving the camera, it\xe2\x80\x99s such a pet peeve'"
125,b'@gardnerlangway okay but like imagine this: gardner visits his empty house one day because he\xe2\x80\x99s like sad and lonely and he finds a mouse scurrying around and since it\xe2\x80\x99s the only living connection to his home he takes it back and raises it as a pet and when it dies he-'
126,"b""@FrankIero here's a picture of my pet mouse named chaos. I hope you have a nice day :) https://t.co/sXrsFDvYbE"""
127,b'Look at this cute little mouse at pet smart https://t.co/NMZnVLx93O'
128,"b'My husband bought me another pet mouse \xf0\x9f\xa4\xa7 He\xe2\x80\x99s VERY active so it\xe2\x80\x99s hard to get a picture of him, but everyone meet Zelda\xe2\x80\x99s new bf, Julius Cheeser (J.C) \xf0\x9f\x98\xad\xf0\x9f\x96\xa4 https://t.co/5kGvoaYnxt'"
129,b'@RaccoonEggs I don\xe2\x80\x99t know why I just thought of a pet mouse'
130,b'Anyone else find it weird that Minnie is a mouse and she has a pet cat??'
131,b'@d_unusualaffss Ur pet is it cat or mouse does it really wuss?'
132,b'Today I pet a mouse. https://t.co/wxmzc38TOh'
133,b'My daughters pet mouse Elvis died yesterday. \nHe was caught in a trap.\xe2\x9c\x8c\xe2\x9c\x8c\xf0\x9f\x98\x81\xf0\x9f\x98\x81'
134,"b'childish teasing, wasting food intentionally knowing that it bothered Steven and pretending to feed a mouse to his pet snake in order to sca'"
135,"b""@VanillaTheBitch what's your pet mouse's name"""
136,b'how does sarah mclachlin do that with her voice'
137,b'imagine if u found out ur significant other was a cat person \xf0\x9f\xa4\xa2'
138,b'@UrLoverGod rip in peace'
139,b'@pet_mouse I ain\xe2\x80\x99t seen a Denny\xe2\x80\x99s in eons bro'
140,b'@UrLoverGod denny\xe2\x80\x99s tbh'
141,"b""i keep having a mouse creeping into my room in the night,\ni have a pet and i didn't even know it! #mouse #mice #animals #cute #nature"""
142,b'@blogTO That mouse moves pretty slowly as mice go. Like a pet store mouse.'
143,"b'""\xe2\x80\xa6 my mouse is wireless, so that means my pet robots are going to fiddle around with things that interfere with the Bluetooth connection. Sigh. At least they\'re learning, I guess."" https://t.co/KO0Y0MdcJF'"
144,"b'Are you looking for an inquisitive, friendly but also pocket size pet? Look no further than your nearest pet shop. A mouse just may be the perfect companion for you. \n\nRead all about keeping a pet mouse with the VetBabble Mouse Care Guide \xf0\x9f\x91\x89 : https://t.co/zqCcl5KF69 https://t.co/mQp2KJ5EpB'"
145,b'@Darth_Brexit_ But I really like it here... I like the shiny boots and the nice pressed uniform. I thought that I had job security. The Koffeee is a little on the weak side (like the Rebel scum) but they serve wonderful Bantha Burgers in the canteen. Can I take Mikey my pet mouse droid with me?'
146,b'1pcs Flocking Mouse Funny Cat Toys Sound Plush Rubber Vinyl Mouse Pet Cat Cat Realistic Sound Toys pet ... - https://t.co/L15bdYyqrM https://t.co/kmG6aTvsWW'
147,"b'@AllyDietrich @Zark_A4 @CP24 Mcewans, Nordstrom, starbucks  are literally in the same building and share walls.  So all of them have a pet mouse.  left wing propaganda.'"
148,"b""My pet mouse 'Elvis' died last night. He was caught in a trap.."""
149,"b'https://t.co/jK1A7TkdGB\nExcited to share the latest addition to my #etsy shop: Catnip Toy Mouse, Mouse With Bell, Pink, Crocheted, Pet Toy, Organic Cat Nip, Pet Accessory #catnipcattoy #cattoy #catniptoy\xe2\x80\xa6 https://t.co/ytqkMNSn0c'"
150,b'My bunnies apparently have a pet mouse. I don\xe2\x80\x99t know what to do about this.'
151,"b""Today's translation research: Pet mouse name generator https://t.co/gbVzU3DSEt"""
152,"b""@NegarMortazavi Totally disagree with @JZarif here.\nThose gangsters where touch ppl not afraid of death.\nBrian Hook looks more like a little mouse who would flee from any tough challenge.\nHe's there because Pompeo finds him an obedient pet."""
153,b'@TamashiiHiroka You just need a pet mouse'
154,"b""@samanthaejacobi @chelllllll ...though Remi &amp; Tracey's pet mouse were bff"""
155,"b""@ER4pets So many great titles to choose from! We don't have pet mice, but If You Give a Mouse a Cookie always explains our relationship with our pets \xf0\x9f\x98\x85"""
156,"b'Oh, you have a pocket pet? Like a tiny mouse? Or a baby bird? Or a trained butterfly?'"
157,b'@aldurty @pet_mouse Sorry now I just feel dirty ...'
158,b'@DillonMenard @pet_mouse Dillon please direct ur thirst tweets toward somebody else husband'
159,"b'@mp1181 We heard this weird ass clicking and I was sure it was a mouse so I lost my mind. Yeah, it\xe2\x80\x99s flying one. It\xe2\x80\x99s in the false ceiling. Still there. We have a pet now.'"
160,b'#dreamdiary i had a pet mouse who could talk and we had a lovely conversation about cheese. [sometimes i seriously wonder how my brain comes up with this stuff...]'
161,b'@Melindahays16 Inky the mouse is my pet...'
162,"b""All my real estate friends... Pet friendly back to Bondi or double by... HELP!\n(ps the Pet is size of a long mouse and doesn't bark)"""
163,b'@phantom_nisnow Reginald a Cockney mouse wizard. Our parties bloodrager/druid claimed his pet mouse as a familiar gave it a ring of telepathy and had it trained to be a wizard.'
164,b'My character has a pet mouse called Crumbs. This is the cutest thing I have ever come up with.'
165,"b""My pet mouse 'Elvis' died last night. He was caught in a trap.."""
166,b'@behemolith I used to have a pet mouse named Baby Gandalf.'
167,b'@pet_mouse Ask him to smack mine too'
168,b'@pet_mouse Move to a different state and change my number.'
169,"b'@puritysin @Aaron_Sparrow @SilvaniArt Yup. Once, I lost my job and were had to move into my in-laws until we were back on our feet. When we were able to move out, the pet fee at most apartments around here was difficult to afford, let alone food, litter, and veterinary care. But my in-laws found the mouse population-'"
170,"b'@astros_dude @autch14 @AllieJMo Like a pet cat she keeps cooped up in a small apartment all day, feeds it mushy canned food instead of an actual bird or mouse and the only stimulation it gets is occas catnip highs and glimpses of nature outside a window?'"
171,b'Someone said that the first time you lock eyes with a pet mouse that starts trusting you is the meaning of true love. I want a pet mouse!!!!!!'
172,"b""There's a video of a guy scratching his pet mouse's cheek and it was basically a dog in a mouse body because it continuously kept running back to him for more scritches"""
173,b'It\xe2\x80\x99s always an exciting day in the junior high when your students inform you there\xe2\x80\x99s a mouse in the classroom. Especially when they ask if it can be the class pet. https://t.co/wEIfthHaAk'
174,"b'I caught a mouse and now I\xe2\x80\x99m keeping it as a pet, her name is muffin'"
175,b'@itealaich Also she has a mouse. Infestation? Pet?'
176,b'@pet_mouse Hoping he smacks my ass too'
177,b'My pet mouse named Elvis died last night\nIt was caught in a trap'
178,"b'fellas, you\xe2\x80\x99re at olive garden and this dude smacks your girls ass. wyd? https://t.co/SwsqAJw5Az'"
179,b'My pet peeve: clicking on a mouse/ typing on a keyboardddddd \xf0\x9f\x97\xa3'
180,"b'@CrynamicBanter I. HAVE. THIS. DREAM. TOO. It\xe2\x80\x99s reoccurring, that I left my former pet mouse to die in a bug infested cage. What does it MEAN.'"
181,"b""You know that Jay &amp; Silent Bob thing where a character who never speaks has one scene where he gives a lengthy speech about something or other?\n\nI'm imagining a Smash Bros fanfic where DQ8 Hero has this, but instead of him talking it's his pet mouse Munchie."""
182,"b'@hunbothered Maybe if you dressed like Minnie Mouse more often, you wouldn\xe2\x80\x99t need to be renting Pet Cemetery..'"
183,"b""@kiravera8 Now I totally wanna see a version of this with Munchie, Hero8's pet mouse."""
184,"b'I like to keep my pet mouse named Jerome in my pocket, just in case stuff starts ""getting real""'"
185,"b""Target had Halloween pet stuff out, so I picked up a few things for the big kitties, and Harmony/Yuna (if I keep her, that's gonna be her name) loves the little mouse toys, so I got her a three pack of those. What I'm saying is she's in baby kitty heaven right now. &lt;3 so happy."""
186,"b'ZIZLY Ultrasonic Pest Repeller Repellent, Home Pest Control Reject Device for Bed Bugs, Rats, Roaches, Rodent, Mouse, Human, Pet Safe. #Deals (almost ~80% off currently)\nhttps://t.co/wH6BO3fZnM'"
187,b'@StevenWoahdick @aldurty love getting buzzed from ros\xc3\xa9 it hits so nicely after a nice savory meal'
188,"b'@fionapup I am curious, as a snake owner myself Im afraid that if I get pet rats, my snake would constantly be on the move looking for them - obviously you keep them in separate rooms, but have you ever had a snake go into food mode bc of the mouse scent on your clothing?'"
189,b'Lol people talking bout this a  clean pet store mouse.\nLooks like every road rat ive ever seen https://t.co/mxyWBr2jRM'
190,"b'Happy birthday to this beloved icon, Pluto! \xf0\x9f\x8e\x89\xf0\x9f\x90\xb6\n.\nPluto was born in 1930, as Mickey Mouse\xe2\x80\x99s loyal pet dog and closest companion. It is believed that he was named after what had just been classified as the 9th planet\xe2\x80\xa6 https://t.co/yxQplyD1pR'"
191,b'@TabithaAnne samesies'
192,"b""@LordOfTheZoo @MashaMasala @blogTO Yea if you've seen real dirty vermin you wouldn't be casually holding them \xf0\x9f\x98\x8f people woth different view points will do the dumbest shit just to get their way, like, oh idk, release a mouse they bought from the pet store and claim it's unclean"""
193,b'sobbing. babie chanyeol too crying about his pet.. yall remember when he went on knowing bros and talked abt how he once wanted to keep a mouse he found on the streets bec he cared for animals too much \xf0\x9f\x98\xab my boys i love them sO MUCH !!! https://t.co/7yzcxBuJIy'
194,b'My hobby is caring for animals. I happen to have a mouse with me right now in fact. Would you like to pet him?'
195,b'@streIizi this makes me want a pet mouse they\xe2\x80\x99re just smaller dogs :('
196,"b""Pet mice are meant for loving, not being outside. But I guess even if he gets eaten right off the bat when I release him, it's better than a snap trap etc. At least he'll go as his own mouse, with dignity and purpose."""
197,b'in middle school a girl got sent home cause she snuck her pet mouse in in her cleavage https://t.co/y6QXQIR6Rb'
198,b'I have a pet. It is a mouse. \xf0\x9f\x98\x82\xf0\x9f\x98\x82\xf0\x9f\x98\x82 https://t.co/oF9K0G58G9'
199,b'Why do I feel like someone bought a mouse from PJ\xe2\x80\x99s pet store and planted it at chick-fil-a. https://t.co/s2F04DPlcl'
200,b'im tryna convince my mom to let me buy a pet mouse BXKDBKSBFJD'
201,b'@pet_mouse Always cravin\xe2\x80\x99 a sweet treat after dinner \xf0\x9f\x98\xa9'
202,"b'my cat gets really moody and mean when I wanna pet her while she\xe2\x80\x99s sleepy, but somehow she thinks it\xe2\x80\x99s totally fine to wake me up at 7 am by jumping on my bed,dropping her toy mouse on me, and then screaming until I play with her. \xf0\x9f\xa4\x94\xf0\x9f\x99\x83'"
203,b'drank a bottle of ros\xc3\xa9 with my wife outside. life is ok.'
204,"b'Drow is a wonderful example of how great it can be to have a mouse as a pet. He is kind, curious, active, &amp; sweet.  Learn more by visiting https://t.co/gQrGyCohqs \n\n#MNPPR #MICE #Petmice #Fuzzy #Pocketpets #lookingforahome #active #sweet #curious #Kind #bemine #tail https://t.co/YnCY7ZH6yN'"
205,"b'my pet hen caught + killed a mouse today, which means that she has been a better exterminator than our neighborhood cats have ever been.'"
206,"b""My pet mouse 'Elvis' died last night. He was caught in a trap..\n#dadjoke"""
207,b'@pet_mouse Bro I\xe2\x80\x99m craving a sweet treat as well'
208,b'just had a nice dinner now i need a sweet treat'
209,b'@blogTO Cutest mouse. Looks like it\xe2\x80\x99s straight out of the pet store. Someone obviously set this place up!'
210,"b'had to witness a pet mouse being put out of its misery last night (due to a broken back) via being put in a box and run over by a car. and the consoling words offered were ""at least you didn\'t have to do it to a dog""'"
211,b'dave chapelle \xf0\x9f\x98\xad'
212,b'Cat Interactive Toy Stick Feather Wand With Small Bell Mouse Cage Toys Plastic Artificial Colorful Cat Teaser Toy Pet Supplies #Pet #cattoys\n$0.84\n\xe2\x9e\xa4 https://t.co/fiLL1uislX https://t.co/druhVQu36F'
213,b'@Eulchenkatze @Maxis_Match_CC @TheSimCommunity @SimsCreatorsCom Thank U!!! Yes all my Pet Art is CC Free just the maxis paint tool and my mouse! \xf0\x9f\x92\x9e\xf0\x9f\x98\x81\xf0\x9f\x92\x9e'
214,b'@yournewcaptain thanks'
215,b'Iulove Pet Indoor Solid Wooden Cat Hunt Toy Interactive 3/5-holed Mouse Seat Scratch (D) https://t.co/CpeiIupp9K #DogCrates #dogcrateplaypencombo https://t.co/fpKFw4c0kG'
216,b'@pet_mouse i agree'
217,b'I got a pet mouse and I kind of want to name him toast hehheh'
218,b'Cant stop thinking about the mouse in the pet shop. I really wanted to take him home \xf0\x9f\x98\xa2'
219,"b'@Phage_dis Hey @Phage_dis, Love the pet mouse! \xf0\x9f\x90\x81\xf0\x9f\x98\x8d Remember to tag a friend to complete you entry! \xf0\x9f\x98\x81'"
220,"b""@TheCiroth @HarriedWizard @Foo_Dog_Mouse No. Even my Shadow was not able to access his body enough to fully pet the dog. It's a travesty."""
221,"b'@lietomelaur No I want a pet mouse, not a wild mouse \xf0\x9f\x98\x82'"
222,"b'@temptingweaver Well... Lash got to pet @Foo_Dog_Mouse, so that\xe2\x80\x99s close right?'"
223,"b'@scftkaz Hahahhaah my favourite was the time she caught a mouse and it was still alive and fine she was just playing with it so my brother literally forced us to keep the mouse as a pet and that poor mouse had to live it\xe2\x80\x99s whole life with my cat just right there, staring at it evilly'"
224,"b'https://t.co/7O2ktkUTo9 Authenzo 2019 Upgraded Version Humane Smart No Kill Mouse Trap Catch and Release, Safe for People and Pet-2, Brown  #Traps #PestControl #Categories #PatioLawnGarden #SafeforPeopleandPet2 #Brown #Authenzo #mousetrap #Amazon #Deal https://t.co/67Xk2FEttP'"
225,b'I think there\xe2\x80\x98s a problem with my new box of meds.... #mouse #cute #pet https://t.co/EsTSyd5Hwz'
226,"b""https://t.co/sPBfNzAKoJ\n \nMickey Mouse Clubhouse Season 01 Episode 14 Pluto's Puppy Sitting Adventure Part 2\n\n#PuppyVideos #PuppiesVideos #PuppyVideo #Dogs #Dog #Puppies #Puppy #Pets #Pet #CuteDogs #CuteDog #CutePuppies #CutePuppy"""
227,"b'Here we have Cheddar. A shy rat(mouse)folk who tries to do the right thing, but it\xe2\x80\x99s hard work keeping your pet griffin from eating all those shiny coins that make her sick!\nCome meet Cheddar and the rest at 3PM EST/8PM GMT @ https://t.co/5D0MqOgkzZ\n#dnd #illustration #mouse https://t.co/ouGLxaxwUk'"
228,b'I WANT A PET MOUSE'
229,b'My hobby is caring for animals. I happen to have a mouse with me right now in fact. Would you like to pet him?'
230,"b'Roald Dahl made me want to have a mouse as a pet when I was younger but I gave up on that, and now you show me this???? https://t.co/K9hVzbWBL3'"
231,"b""I happen to have a mouse with me right now. Would you like to pet him? I'm sure he would like that very much."""
232,"b'Try, if you can, to imagine being in this 65-square-foot cell, just you, your cellie and a pet mouse. Mail comes in and out. You get the occasion visit or phone call, but otherwise this and the prison is your universe. Now imagine living here day after day.'"
233,"b'Oh, you have a pocket pet? Like a tiny mouse? Or a baby bird? Or a trained butterfly?'"
234,b'Except with my pet mouse https://t.co/99uIz5MR8b'
235,b'Found This is probably a long shot but I found this pet mouse in my backyard in #Elgin. Did anyone lose this mouse?\nYYC Pet Recovery shared a post.\nThis is probably a long shot but I found this pet mouse in my backyard in Elgin. Did anyone lose this mouse or want one? We can\xe2\x80\xa6 https://t.co/gH39uHEDcl'
236,b'@surekhapillai Hello from my unnamed pet mouse to yours!! https://t.co/ruvFaSztYE'
237,b'I want a pet mouse \xf0\x9f\x90\xad\xf0\x9f\x90\xad'
238,b'A 10 year old boy travels around the world using his pet mouse to fight for him against other people\xe2\x80\x99s creatures https://t.co/blTCUzgyGH'
239,b'Fucked around and bout an already pregnant mouse from the pet store. Saved myself like 3 weeks. Clutch AF.'
240,b'https://t.co/Y5oMWPnaJX\n \nDisney Minnie Mouse Care /Three Little Kittens Song\n\n#KittenVideos #KittensVideos #KittenVideo #Cats #Cat #Kittens #Kitten #Kitty #Pets #Pet #Meow #CuteCats #CuteCat #CuteKittens #CuteKitten'
241,"b""tell me an unknown fact about yourself. i have a pet mouse and it's made of wool. i haven't named her. https://t.co/jfd6SN89N7"""
242,b'Cop: Have you seen this lady\xe2\x80\x99s pet mouse? It\xe2\x80\x99s been missing. \n\nOwl: who? https://t.co/9BFvpORTdf'
243,"b""me, conversing with a farm cat in a baby voice as I pet him: are you gonna come get the mouse in my trailer? Huh? I give you pets and scritches and we're friends now? Are we going to solidify our friendship with this blood pact via mouse extermination? Good kitty~"""
244,b'@livvia I\xe2\x80\x99m the kind of guy that\xe2\x80\x99s got a pet mouse\n\xf0\x9f\x98\x82'
245,b'@pet_mouse LMFAOOOOOOOO'
246,b'i don\xe2\x80\x99t care what anybody says. a fruit roll-up is a one-bite snack.'
247,"b'Cat, dog, fish, snake, mouse, if you neglect your pet enough to cause it to die a painful lingering death, you need to experience similar pain. https://t.co/p3ydIX0CJd'"
248,"b'Hisoul Hot  Electric Toy - Rat Toy Cat, Pet Cat Dog Funny Wireless Electronic Remote Control Mouse Rat Pet Int... https://t.co/xRJ8PL824h'"
249,b'who wore it better. fave if you agree https://t.co/ZB3krcnaQ0'
250,b'my wife just bought a sweater that looks like it once belonged to john candy'
251,"b'@squidont I mean, considering the difference in lifespan isn\'t a human ""wife"" more along the lines of like, a pet mouse? \xf0\x9f\x90\x81\xf0\x9f\xa4\x94'"
252,b'saw my cousin for the first time in 10 yrs and had a vivid memory that I named my pet mouse after her'
253,b'New post (CAT KITTEN SISAL SCRATCH POST BED TOY WITH TUNNEL &amp; MOUSE PET ACTIVITY PLAY FUN) has been published on Cat Training - https://t.co/UQga1NH2r9'
254,"b'In other news I want a pet mouse but I alrdy have 2 hamsters,,,,,'"
255,b'@NikkiEliot_ Looks like a dwarf mouse! It can be a pet hahaha'
256,"b'@0xabad1dea I\'m torn between ""This has important implications for the nature of truth and trust"" and ""Where can I find a pet weasel?""\n\nIn fairness ""It\'s a long mouse with a cat\'s face that bounces and dances, and is VERY RARE so you might only ever see them in videos"" does sound pretty fake!'"
257,b'@pet_mouse Oh shit\xf0\x9f\x91\x80\xf0\x9f\x91\x80\xf0\x9f\x91\x80\xf0\x9f\x91\x80'
258,b'@StevenWoahdick bought a couple when we were grocery shopping....then went back the next day at 8:45pm for more \xf0\x9f\x98\x88'
259,b'@pet_mouse Damn for real?!'
260,"b'@BBolander They all have such odd little stories. He was asking a pet shop to sell him four and only four live crickets (which he then fed and waited them to die naturally) he had to explain about the cabinet project. Thus he was gifted a dead snake, lizard and mouse.'"
261,"b""@dietdaydreams -- puppy formula and soaked cereal until he recovered fjcjdjd I still have him today!! He was and is my vvv first pet mouse and all of the mice born here are descended from him \xf0\x9f\xa5\xba he's my favorite little old man dhdjd"""
262,b'man what the fuck https://t.co/5nPYiV8HPB'
263,"b'I\xe2\x80\x99m like that one mouse at the pet store that is awake, rapping and pawing against the glass \n\nPICK ME PICK ME'"
264,"b'@everywhereist Mice are jerks and masters of psycho terror. Every noise: Mouse?! Every movement: MOUSE?!? Got guilt-tripped into keeping it as a pet after catching it, it escaped, and continued to terrorize me. Finally caught it again and drove 20 minutes at 1am to fucking relocate it. Jesus'"
265,"b'@RedFlameHero ""This stuff is good man.""\n*Receives call*\n""Oh crap gotta feed my pet mouse, see ya mario.""'"
266,"b'@breioomART @fionapup I think the name may mean ""Siamese Pet Mouse"" as I know that specific pattern on mice is called Siamese (similar to cats)'"
267,b'@UrLoverGod other way seems fucked up'
268,b'@pet_mouse Brah\xf0\x9f\x98\xad\xf0\x9f\x98\xad\xf0\x9f\x98\xad'
269,b'@justmedashv HOW DARE YOU NOT LET ME PET YOUR MOUSE.'
270,b'Which pet would you choose?\nA phoenix\nB owl\nC mouse\nD mudblood'
271,b'Clicky the mouse was waiting for me this morning in my office. Pretty good pet. https://t.co/ti7SzmdkD7'
272,"b'Onion owns a pet snake, which he tries to get Steven to feed a mouse found in his room.'"
273,"b""@GayMcMillen @DudekLinda @GualcoJodie @SarahGould_SA @Itridpm @Janwithay @TimTerminator1 @RobynCherChew @ShercoSherrill @smp0312 @Valkyrry @GStar7508 @kim_f86 @Moooing4DNCow @BezerkSon @rbrtpnc @MarilynHallett @Philippodd @dwajkhul @Steinbeckfan1 @BillH_ITGuy @WizardofHaase @Douglasreber @NewPatriotMan @Msgargoyle13 @rbw8694 @poppij @MtnMD @ActDontReact @CHHolte @MommaMia6512 @AllyBolour @SShawnessy @danmonaghan @Msmariablack @smartalek180 @RestlessNews @SusanLeigh11 @hey_butter @namaste90111 @LesleyA15068568 @kevin_hockley @zflowrpowr @realDonaldTrump @MELANIATRUMP @DonaldJTrumpJr @EricTrump @LaraLeaTrump @TiffanyATrump @GOP I'd have to find just the right Chihuahua. Never cared for the breed, but spotted poor little mouse-size Joey being tormented in a pet store where I'd gone to buy catfood. I just couldn't leave him, so dropped $750 to rescue the little guy - and fell in love."""
274,b'i hate it when my pet cheetah gets into my  mouse pad collection'
275,"b'We got her this mouse toy, so she could pretend to hunt. This is now her favorite thing to cuddle with.\n \n#Cats #Cat #Kittens #Kitten #Kitty #Pets #Pet #Meow #Moe #CuteCats #CuteCat #CuteKittens #CuteKitten #MeowMoe\n\nhttps://t.co/QSNdWqMKJK\n \n. https://t.co/5YvrIBd9cZ'"
276,b'Hot New Funny Pet Katten Cat Toy Wireless RC Electronic Rat Mice Toy Katten Speelgoed Remote Control Mouse Cat Toys Dropship USD 10.10\nhttps://t.co/bEfFshmg5C https://t.co/T7K6Z4VxWO'
277,"b""in this context mouse is life. It doesn't need to justify itself. When you wake up in the morning, go pet a tree."""
278,"b'@GrayscaleInvest Paper money benefits make it rain, make into tiny origami animals, doodle paper, birthday card stuffers, snort cocain? Get fat stacks and make a tiny house for your pet mouse, fun to add to tip jar at your local coffee house, the appocolips toilet paper...'"
279,"b'Oh, you have a pocket pet? Like a tiny mouse? Or a baby bird? Or a trained butterfly?'"
280,b'@Davescouse3 My pet mouse Elvis died yesterday.\nHe was caught in a trap'
281,"b'#FairyTaleTuesday\nThe Tale of Custard Dragon by Ogden Nash &amp; illustrated by Lynn Munsinger. \n\n\xe2\x80\x98Belinda lived in a little white house, \nWith a little black kitten and a little gray mouse, \nAnd a little yellow dog and a little red wagon, \nAnd a realio, trulio, little pet dragon.\xe2\x80\x99 https://t.co/XCL6XScwrP'"
282,b'@frostyoon yeah and one of my pet mouse sang gucci gang and flew around the room'
283,b'UARTER 49ft Remote Distance Cat Toys Remote Control Simulation Plush Mouse RC Electronic Rat Mouse Mice Toy For Pet Cat https://t.co/L82odTr1bl\n\n#fashion|#tech|#lifestyle|#musthave https://t.co/dLcCgpDzWm'
284,"b'@KiwiHermit @Whygena Good mouse, would pet'"
285,b'get a gamer mouse so you can pwn with one hand and pet cat with another'
286,b'some people on google; if you find a wild baby mouse it can be your good pet plus it\xe2\x80\x99ll live longer/be healthier!\nother people on google; don\xe2\x80\x99t keep a wild mouse baby you fucking idiot get a job and brush your hair'
287,"b""@joyerancatore We found a mouse outside ( we used to have quite a few feral cats in the neighborhood, now there is one) and so I'm thinking it's time for a mouser... that lets me pet her and snuggle.... hehe https://t.co/I4DgkbVj1d"""
288,b'#Cute #Kittens | #Kittens playing with ...\n \n#Cats #Cat #Kittens #Kitten #Kitty #Pets #Pet #Meow #Moe #CuteCats #CuteCat #CuteKittens #CuteKitten #MeowMoe\n \n#Autocad #comedyshortsgamer #comment #episode #episodes #freetutorial #ksi\n \nhttps://t.co/A28tqr6Sg7\n \n. https://t.co/Jb8to1cEXR'
289,"b'#pet #hound Interactive Cat Feathers, Sticks, Mouse, Bells and Round balls teaser Toys https://t.co/8f2paZWS3i https://t.co/LEBmIwoeCH'"
290,"b""I want a pet rat or mouse... they're so cute\nI hope the next apartment I get lets me have a small pet"""
291,b'Tiny Man: By Evan Brewer\n\nI\xe2\x80\x99m a tiny man\nI got tiny hands\nI got tiny pants\ngotta tiny house\ngot a tiny pet mouse \n\nI do everything I can\n\nto be a tiny man\n#NintendoSwitch'
292,b'@idahohioan Pac-Man frog or a dune gecko. The gecko was also the coolest pet I\xe2\x80\x99ve ever had besides a mouse or conure.'
293,b'Yeah it sucked when i read the book and accidentally turned one of my classmates into a pet mouse https://t.co/AJ2QYD4ePu'
294,b'New post (Pet Cat Puzzle Nine Hole Mouse Ball Hole Toy Box Kitty Interactive Training Toys) has been published on https://t.co/Mj8bJXCCbT - https://t.co/IIrM2NxKEm https://t.co/kQ1ipOpcUe'
295,"b'also, no i didn\xe2\x80\x99t get permission to have him. yes my parents are still mad. he cost three dollars and seventy two cents at pet supermarket. he eats mouse food that i buy from petco :)'"
296,"b'@DrBenLovell @dr_mattmorgan even as a nurse, a lone \xe2\x80\x9cdoctor aware/cons aware\xe2\x80\x9d is a pet peeve in documentation! .. absolutely raise concerns, but what critical thinking is the nurse/junior applying - or putting in place and taking responsibility themselves!?'"
297,b'@pet_mouse Thanks bro'
298,b'@FAM1L1AR He smiled as he pet her he then took the mouse away. She couldn\xe2\x80\x99t get all the nip he doubted it would be good for her'
299,b'@Uglyxkorean that\xe2\x80\x99s a damn nice mow'
300,"b'Picks up the mouse an place him in her lap, a frown still very present as she lightly pet him. https://t.co/4u97rRgioH'"
301,"b""@fionapup Oh I didn't realize this was a fancy mouse, is that typically what they sell in pet stores for feeders?"""
302,b'#Pets Best examples of a cage for a pet mouse? https://t.co/1WqSCl4AIJ https://t.co/GA5oXyiqcm'
303,b'@barstoolWSD Get a pet mouse'
304,"b'simo loves mice and would probably love to eat them more but the only pet store in my city that sells frozen mice sells them for like 3,50\xe2\x82\xac per mouse :\\ you get a small discount if you buy 10 but it\xe2\x80\x99s still super expensive'"
305,"b'@charlesevansart Sooooo. You haven\xe2\x80\x99t seen a pick of one of our spiders catching and killing/eating a mouse???  Yours Looks relatively harmless and would keep flies etc., at bay. A nice pet?? Lolololol. Glad you \xe2\x80\x98put it outside\xe2\x80\x99.'"
306,b'1 year ago https://t.co/a8teYPEIRp'
307,"b'I don\xe2\x80\x99t care for all the seal like replies, but this much problem solving from someone\xe2\x80\x99s pet mouse is pretty amazing. \n\nCheck it out for a quick laugh. Worth your twenty seconds. =) https://t.co/WXJTUzCOSF'"
308,b'@TheWeirdWorld Wait isnt having a rat/mouse as a pet normal?? Why is it dirty?? (I didnt read the article so...)'
309,b'i want a pet so badly like NO OFFENSE but i deserve a little hamster or a mouse or a ferret you know !!!!!!!!!!!!!!'
310,b'1Pcs Funny Cat Toys Elastic Feather False Mouse Bottom Sucker Toys for Cat Kitten Playing Pet Seat ... - https://t.co/j8jBeQ6D8S https://t.co/9s4DfgIT6u'
311,"b""@TessaAkkoKin I'm more scared of spiders\nI want a baby pet mouse because they got TINY LITTLE HANDS"""
312,"b""I happen to have a mouse with me right now. Would you like to pet him? I'm sure he would like that very much."""
313,"b""hmm... tough one\nThe Mouse and His Child\nThe Muppet Movie\nFantastic Planet\nRango\nTeacher's Pet (2004) https://t.co/PzEiGTA1FM"""
314,b'#NowPlaying A Great Big Pile of Leaves - Pet Mouse \n\nListen at https://t.co/qc1heUr6OT https://t.co/ODuURxliE4'
315,b'When people say they not afraid of mouse. (Not the pet mouse) https://t.co/AzUPkMsfHJ'
316,b'@MailOnline @CarlaChamorros That looks like a mouse you buy at pet store that someone brought in as a prank.'
317,b'New pet hate:\n\nOn a train. Person across the aisle is using their very loud clickety-clickety actual mouse instead of the track pad on their laptop.\n\nClick. Clickety-click.'
318,"b""@darren_scott Remember when he tried to get rid of the home office cat? Was it the official mouse or something...? He ain't pet friendly."""
319,"b'The one under the floor boards has a little hole he can get out of, so I keep a wire garbage can over the hole so he can come out and get food I put out for it to keep him alive and to keep him safe from cat teeth. I basically have a pet floor mouse right now.'"
320,b'Pet Dog Cat Cozy Dome Bed With Inner Cushion Coverage Shelter Black Mickey Mouse Act Quickley $59.99 #shelterdog #catdog #sheltercat https://t.co/35fQaXth89 https://t.co/Jjvph4e1dY'
321,"b""https://t.co/oiQb6ONerX\n \nMickey Mouse Clubhouse   S01E14   Pluto's Puppy Sitting Adventure\n\n#PuppyVideos #PuppiesVideos #PuppyVideo #Dogs #Dog #Puppies #Puppy #Pets #Pet #CuteDogs #CuteDog #CutePuppies #CutePuppy"""
322,"b'He replied ""yeah. They start freaking out if their cages aren\'t near eachother"" so I adopt them all.\nI call the bird onto my finger, place the mouse on my shoulder and place the moth on my other shoulder.\nAs I walk out of the pet shop I hear the bird say thankyou'"
323,"b'As they fly away my view of this faded to white. Once clear I saw a lamp in a pet shop with a moth inside. In the container above it was a mouse. To the left a bird.\nI was talking to a clerk, but with the knowledge of this story I asked ""Are these animals close?""'"
324,b'@streIizi Was my friends pet mouse'
325,b'@TakenRain_ Was it a pet@mouse or wild'
326,b'@dianaelz @DaveStankoven @thek40 Gogo getting jealous of the mouse because kao pet the mouse'
327,b'how much do i love animals??? when i was 5 i was in the pet store n saw a mouse in w the snake trynna get out n i literally started crying in the store and begging my mom to buy the mouse so we could rescue it'
328,b'Rat Art Print Watercolor Painting Animal gift for Kids nursery wall art decor Cute Pet rat lover Watercolor mouse rat #MouseRat #WatercolorMouse \n$14.00\n\xe2\x9e\xa4 https://t.co/8Xsl5IxyqP https://t.co/5kBOFGzXhc'
329,b'now we have https://t.co/7KkqvEUJh9 for things like this https://t.co/kaRXC80n7h'
330,"b'when the internet was first invented, our parents used to e-mail each other pictures like this https://t.co/55MWUTYKLn'"
331,b'@DaveStankoven @thek40 It can start with 1: Mondo Mango Kao thinking about going for a walk; 2: Struggling by putting on shoes; 3: walking down the street whistling; 4: looking a cute mouse; 5: thinking about taking it as a pet but GoGo might eat it; 6: petting the mouse with a stick...just a thought\xf0\x9f\x98\xac'
332,"b""I'm really upset. I woke up this morning to find my pet mouse Elvis had died.\n\nHe was caught in a trap."""
333,b'#hashtag4 Baby Toys RC Funny Wireless Electronic Remote Control Mouse Rat Pet Toy for Cats Funny Toys For Girl Boy https://t.co/wiralKy8s6 https://t.co/oIIuCOnl7k'
334,b'anyway now im a pet mouse enthusiast i guess'
335,"b""Bought a shelf for my amiibo figures :)\nIt looks great on my room imo, amiibo can be great decorations when placed like this\n\nand yes that's my dog on my mousepad so i can pet if every time i move my mouse https://t.co/yXlzcdcy0O"""
336,"b'Check out this renewed listing in our Etsy shop! https://t.co/lMMikAHESy Standing Rat Decal, Mouse Laptop Sticker, Rodent Tablet Decal, Pet Rat Car Sticker, Mouse Mom Window Sticker / 4""h x 3""w - #594 by SewardStreetStudios https://t.co/wvvgbqJZms'"
337,b'just found this baby mouse outside on the patio and it was shaking and my mom said i wasn\xe2\x80\x99t allowed to pet it so i took a paper towel and gently pet it with that and it closed its eyes and stopped shaking \xf0\x9f\xa5\xba https://t.co/0yuXn1jyNP'
338,b'@DGVibares Pet a mouse? How can I pet something that I really disgust \xf0\x9f\x98\xa4\xf0\x9f\x98\xa4'
339,b'just ate a whopper'
340,"b""Asking Ito-san if he's ever seen a ghost. He said no, but he felt the presence of a pet that passed away for about a week after.\n\nTachikawa-sensei: Was your pet a mouse?\n\nIto-san: No, it was a dog. https://t.co/6q8lepAVBJ"""
341,b'Somebody get me a pet mouse https://t.co/qHRpW1jcr8'
342,b'My pet mouse Elvis just died. He was caught in a trap \xf0\x9f\xa4\xa3#suspiciousminds'
343,b'Using immunoPET imaging to monitor kinetics of T cellmediated inflammation and treatment efficiency in a humanized mouse model for GvHD.: Hematopoietic stem cell transplantation is the only curative treatment for several hematological malignancies and\xe2\x80\xa6 https://t.co/aUXP0FX0k1'
344,"b""Damn @petsupermarkets this is some straight up robbery. I just had to pay $3.49 plus tax for a pinkie mouse. A. PINKIE. It's a feeder not a pet! Sucks this was my only option since my normal place (that charges $1.07) is currently out. #overpriced #snake #wtf #loweryourprices"""
345,"b'https://t.co/jK1A7T2Ci1\nExcited to share the latest addition to my #etsy shop: Catnip Toy Mouse, Mouse With Bell, Fuzzy Mouse Toy, Winter White, Crocheted, Pet Toy, Organic Cat Nip, Pet Accessory #pets #toy #cattoy\xe2\x80\xa6 https://t.co/Gi8NAiFeF7'"
346,"b'Our pet mouse, Elvis, died last night,\n\nhe was caught in a trap.'"
347,"b'Stuart Little and humans can talk to each other. Stuart can talk to cats but cats can\xe2\x80\x99t talk to humans, they only meow. So, can Stuart speak English+cat or can cats speak English+mouse, OR can they all speak English, &amp; cats just play dumb to enjoy the carefree life of a pet??\xf0\x9f\xa4\x94\xf0\x9f\xa4\x94'"
348,"b""@The_Farmer_John For a second there, I thought you were talking about an actual mouse. Like you had a little pet mouse and you were getting worried about its health until I read the whole tweet. I'm just stupid \xf0\x9f\x98\x82"""
349,"b""Is it weird to use RPG terms in real life? Oppie is on the desk wanting attention and I told her I couldn't pet her with my right hand because it was busy wielding the mouse...."""
350,b'@FunkMonkey17 i\xe2\x80\x99m jealous'
351,"b""also why is he not a pet why is he their son im actually pissed off for what reason is he A Son he's a pet mouse why is geena davis feeding into this madness"""
352,b'i hate it when my pet mouse gets into my  remote collection'
353,b'Pet Dog Cat Cozy Dome Bed With Inner Cushion Coverage Shelter Black Mickey Mouse Act Now ! $59.99 #shelterdog #catdog #sheltercat https://t.co/35fQaXth89 https://t.co/9xEkPSIVD8'
