   ,text
0  ,"b'Upgraded Ultrasonic Pest Repeller Wall Plug-in - Most Effective 2019 Electromagnetic &amp; Ionic Indoor Anti Mouse, Ant, Mosquito, Cockroach Control - Safe &amp; Quiet Device, Night Light - 2000 Sq. Ft\n         https://t.co/Sh7OmtgxV5'"
1  ,"b'Upgraded Ultrasonic Pest Repeller Wall Plug-in - Most Effective 2019 Electromagnetic &amp; Ionic Indoor Anti Mouse, Ant, Mosquito, Cockroach Control - Safe &amp; Quiet Device, Night Light - 2000 Sq. Ft\n         https://t.co/YaeJfDn558'"
2  ,"b""@DJBetson So true especially these days. Years ago, my students often had used a mouse at home but now, it's all tablets if they've used a device at home. #caschat"""
3  ,b'@Kristof_E Hi Kristof! Thanks for reaching out. You can adjust the settings by going to the properties of the Touchpad. Go to device manager &gt; mouse &gt; click on Elan then Advance. Let us know on how it goes. -Jerry_Lenovo'
4  ,"b'Upgraded Ultrasonic Pest Repeller Wall Plug-in - Most Effective 2019 Electromagnetic &amp; Ionic Indoor Anti Mouse, Ant, Mosquito, Cockroach Control - Safe &amp; Quiet Device, Night Light - 2000 Sq. Ft\n         https://t.co/mLhzUJhCR8'"
5  ,"b'Upgraded Ultrasonic Pest Repeller Wall Plug-in - Most Effective 2019 Electromagnetic &amp; Ionic Indoor Anti Mouse, Ant, Mosquito, Cockroach Control - Safe &amp; Quiet Device, Night Light - 2000 Sq. Ft\n         https://t.co/w4gKCqwePP'"
6  ,"b'Upgraded Ultrasonic Pest Repeller Wall Plug-in - Most Effective 2019 Electromagnetic &amp; Ionic Indoor Anti Mouse, Ant, Mosquito, Cockroach Control - Safe &amp; Quiet Device, Night Light - 2000 Sq. Ft\n         https://t.co/IhSuR3FCBp'"
7  ,b'Overall I\xe2\x80\x99m satisfied with the product and the replacement component is cheap and easy to replace. But having to carry around a keyboard and mouse for a laptop every few months defeats the main purpose of my device'
8  ,"b'Upgraded Ultrasonic Pest Repeller Wall Plug-in - Most Effective 2019 Electromagnetic &amp; Ionic Indoor Anti Mouse, Ant, Mosquito, Cockroach Control - Safe &amp; Quiet Device, Night Light - 2000 Sq. Ft\n         https://t.co/RCbLRArxvI'"
9  ,b'How to correct mapping of Touchpad and 2nd Mouse device on Xfce? https://t.co/tRksmoMT5j https://t.co/6hTPZZ1pzN'
10 ,b'@DogmanOW @finalmouse Dude your brain just isn\xe2\x80\x99t in the same dimension as your Final Mouse \xe2\x84\xa2\xef\xb8\x8f hand to computer interface device. Need to update brain firmware.'
11 ,"b'Upgraded Ultrasonic Pest Repeller Wall Plug-in - Most Effective 2019 Electromagnetic &amp; Ionic Indoor Anti Mouse, Ant, Mosquito, Cockroach Control - Safe &amp; Quiet Device, Night Light - 2000 Sq. Ft\n         https://t.co/Pl6b5oiqik'"
12 ,"b""@NeneExists @ScrivenerApp I note that iPadOS mouse support is kinda cursory, apparently part of their accessibility settings. (It's intended for people who rely on a cursor/pointer device that emulates a mouse.) But for editing? Head and shoulders above fingers, even with an external keyboard."""
13 ,b'Feeling incomplete at work without my wireless mouse today. What\xe2\x80\x99s one device that \xe2\x80\x9ccompletes\xe2\x80\x9d you?'
14 ,"b'Set up nearly complete, just waiting for Desk to arrive and Still trying to decide on a stream microphone and capture device, also decided to swap out my old keyboard/mouse combo and upgrade to a @Razer set up #Chroma @TeamRazer https://t.co/urLxy7gTRc'"
15 ,"b'UPGRADED Ultrasonic Pest Repeller Wall Plug-in - Most Effective 2019 Electromagnetic &amp; Ionic Indoor Anti Mouse, Ant, Mosquito, Cockroach Control - Safe &amp; Quiet Device, Night Light - 2000 Sq. Ft (1)\n         https://t.co/uBM6hgR1LQ'"
16 ,"b'UPGRADED Ultrasonic Pest Repeller Wall Plug-in - Most Effective 2019 Electromagnetic &amp; Ionic Indoor Anti Mouse, Ant, Mosquito, Cockroach Control - Safe &amp; Quiet Device, Night Light - 2000 Sq. Ft (1)\n         https://t.co/OOR3xOoyBG'"
17 ,"b'UPGRADED Ultrasonic Pest Repeller Wall Plug-in - Most Effective 2019 Electromagnetic &amp; Ionic Indoor Anti Mouse, Ant, Mosquito, Cockroach Control - Safe &amp; Quiet Device, Night Light - 2000 Sq. Ft (1)\n         https://t.co/yMP1sSp8B8'"
18 ,"b'Upgraded Ultrasonic Pest Repeller Wall Plug-in - Most Effective 2019 Electromagnetic &amp; Ionic Indoor Anti Mouse, Ant, Mosquito, Cockroach Control - Safe &amp; Quiet Device, Night Light - 2000 Sq. Ft\n         https://t.co/ywtPPhYpO3'"
19 ,"b'UPGRADED Ultrasonic Pest Repeller Wall Plug-in - Most Effective 2019 Electromagnetic &amp; Ionic Indoor Anti Mouse, Ant, Mosquito, Cockroach Control - Safe &amp; Quiet Device, Night Light - 2000 Sq. Ft (1)\n         https://t.co/jIYVxPDiJe'"
20 ,"b'UPGRADED Ultrasonic Pest Repeller Wall Plug-in - Most Effective 2019 Electromagnetic &amp; Ionic Indoor Anti Mouse, Ant, Mosquito, Cockroach Control - Safe &amp; Quiet Device, Night Light - 2000 Sq. Ft (1)\n         https://t.co/bLmXbRTZbq'"
21 ,"b'UPGRADED Ultrasonic Pest Repeller Wall Plug-in - Most Effective 2019 Electromagnetic &amp; Ionic Indoor Anti Mouse, Ant, Mosquito, Cockroach Control - Safe &amp; Quiet Device, Night Light - 2000 Sq. Ft (1)\n         https://t.co/2tRCLEHoNR'"
22 ,"b'UPGRADED Ultrasonic Pest Repeller Wall Plug-in - Most Effective 2019 Electromagnetic &amp; Ionic Indoor Anti Mouse, Ant, Mosquito, Cockroach Control - Safe &amp; Quiet Device, Night Light - 2000 Sq. Ft (1) https://t.co/rmMJlI1hgK'"
23 ,"b'UPGRADED Ultrasonic Pest Repeller Wall Plug-in - Most Effective 2019 Electromagnetic &amp; Ionic Indoor Anti Mouse, Ant, Mosquito, Cockroach Control - Safe &amp; Quiet Device, Night Light - 2000 Sq. Ft (1)\n         https://t.co/aXt6vEEtzo'"
24 ,"b'Upgraded Ultrasonic Pest Repeller Wall Plug-in - Most Effective 2019 Electromagnetic &amp; Ionic Indoor Anti Mouse, Ant, Mosquito, Cockroach Control - Safe &amp; Quiet Device, Night Light - 2000 Sq. Ft\n         https://t.co/Itj4DGPzQf'"
25 ,"b'UPGRADED Ultrasonic Pest Repeller Wall Plug-in - Most Effective 2019 Electromagnetic &amp; Ionic Indoor Anti Mouse, Ant, Mosquito, Cockroach Control - Safe &amp; Quiet Device, Night Light - 2000 Sq. Ft (1)\n         https://t.co/2OzqBcEKCj'"
26 ,b'@moiralilinoe it\xe2\x80\x99s not a computer mouse it\xe2\x80\x99s a device for getting corn off the cob and also a gift from my grandmother'
27 ,"b'UPGRADED Ultrasonic Pest Repeller Wall Plug-in - Most Effective 2019 Electromagnetic &amp; Ionic Indoor Anti Mouse, Ant, Mosquito, Cockroach Control - Safe &amp; Quiet Device, Night Light - 2000 Sq. Ft (1)\n         https://t.co/GlbLHzG0zh'"
28 ,"b'UPGRADED Ultrasonic Pest Repeller Wall Plug-in - Most Effective 2019 Electromagnetic &amp; Ionic Indoor Anti Mouse, Ant, Mosquito, Cockroach Control - Safe &amp; Quiet Device, Night Light - 2000 Sq. Ft (1)\n         https://t.co/nLlvSdZGC9'"
29 ,b'This is the second time a @Duracell battery has exploded in my @Apple magic mouse. Curious if this is a battery or device issue... https://t.co/aKKyif8mFD'
30 ,"b'UPGRADED Ultrasonic Pest Repeller Wall Plug-in - Most Effective 2019 Electromagnetic &amp; Ionic Indoor Anti Mouse, Ant, Mosquito, Cockroach Control - Safe &amp; Quiet Device, Night Light - 2000 Sq. Ft (1)\n         https://t.co/e4JrcRwe74'"
31 ,"b'@Mr_mbI Call of Duty: Modern Warfare has cross play support between PS4, Xbox One, and PC, and the studio confirmed they will be matchmaking by peripheral input device.\n\nJoe Cecot, MP Design Director, has confirmed to PlayStation Blog that keyboard and mouse will be supported on PS4'"
32 ,"b'Upgraded Ultrasonic Pest Repeller Wall Plug-in - Most Effective 2019 Electromagnetic &amp; Ionic Indoor Anti Mouse, Ant, Mosquito, Cockroach Control - Safe &amp; Quiet Device, Night Light - 2000 Sq. Ft\n         https://t.co/I117aGiFMy'"
33 ,"b'Upgraded Ultrasonic Pest Repeller Wall Plug-in - Most Effective 2019 Electromagnetic &amp; Ionic Indoor Anti Mouse, Ant, Mosquito, Cockroach Control - Safe &amp; Quiet Device, Night Light - 2000 Sq. Ft\n         https://t.co/vSC6yENyDE'"
34 ,"b'Upgraded Ultrasonic Pest Repeller Wall Plug-in - Most Effective 2019 Electromagnetic &amp; Ionic Indoor Anti Mouse, Ant, Mosquito, Cockroach Control - Safe &amp; Quiet Device, Night Light - 2000 Sq. Ft\n         https://t.co/KokjumcRNs'"
35 ,"b'@On_Da_Ball will your device take a wired mouse Billy? and an electronic nut like you should be using rechargables mate, I use them for any battery doodad here :)'"
36 ,"b""@MrEchs are you kidding? \xf0\x9f\x98\x82\n\nMouse: Any Logitech MX series, pick your preferred grip (I use the Ergo trackball)\n\nKeyboard: Apple's Magic Keyboard, Logitech MX Keys (multi device support), or a mechanical keyboard. To recommend a mechanical I need a lot more information."""
37 ,"b'UPGRADED Ultrasonic Pest Repeller Wall Plug-in - Most Effective 2019 Electromagnetic &amp; Ionic Indoor Anti Mouse, Ant, Mosquito, Cockroach Control - Safe &amp; Quiet Device, Night Light - 2000 Sq. Ft (1)\n         https://t.co/z0PWjiviN9'"
38 ,"b'UPGRADED Ultrasonic Pest Repeller Wall Plug-in - Most Effective 2019 Electromagnetic &amp; Ionic Indoor Anti Mouse, Ant, Mosquito, Cockroach Control - Safe &amp; Quiet Device, Night Light - 2000 Sq. Ft (1)\n         https://t.co/YjJeusKO2M'"
39 ,"b'UPGRADED Ultrasonic Pest Repeller Wall Plug-in - Most Effective 2019 Electromagnetic &amp; Ionic Indoor Anti Mouse, Ant, Mosquito, Cockroach Control - Safe &amp; Quiet Device, Night Light - 2000 Sq. Ft (1)\n         https://t.co/fl6FbvKJld'"
40 ,"b'UPGRADED Ultrasonic Pest Repeller Wall Plug-in - Most Effective 2019 Electromagnetic &amp; Ionic Indoor Anti Mouse, Ant, Mosquito, Cockroach Control - Safe &amp; Quiet Device, Night Light - 2000 Sq. Ft (1)\n         https://t.co/DRJ922zEHd'"
41 ,"b'Upgraded Ultrasonic Pest Repeller Wall Plug-in - Most Effective 2019 Electromagnetic &amp; Ionic Indoor Anti Mouse, Ant, Mosquito, Cockroach Control - Safe &amp; Quiet Device, Night Light - 2000 Sq. Ft\n         https://t.co/2GZ5fWoeMp'"
42 ,"b'TUMBLEWEED X mouse ""device removed"" problem https://t.co/6ZBMXsNs2k'"
43 ,"b'UPGRADED Ultrasonic Pest Repeller Wall Plug-in - Most Effective 2019 Electromagnetic &amp; Ionic Indoor Anti Mouse, Ant, Mosquito, Cockroach Control - Safe &amp; Quiet Device, Night Light - 2000 Sq. Ft (1)\n         https://t.co/xZfyUJgBer'"
44 ,"b'**IN STOCK** Cable guys device holders with 2m charge cabe - \xc2\xa321.99 each - Iron man, Buzz Lightyear, Mickey Mouse, Groot, Spyro, Tails\nHolds phones &amp; controllers whilst charging. @ Thegamecave Oakengates https://t.co/KYrg4ycaQU'"
45 ,b'@gator_standard @RocketJumpNinja it was a dark time before he invented the computer mouse. A device we all use and love nowadays but take for granted'
46 ,"b'UPGRADED Ultrasonic Pest Repeller Wall Plug-in - Most Effective 2019 Electromagnetic &amp; Ionic Indoor Anti Mouse, Ant, Mosquito, Cockroach Control - Safe &amp; Quiet Device, Night Light - 2000 Sq. Ft (1)\n         https://t.co/JWoq9Ogxmi'"
47 ,"b'UPGRADED Ultrasonic Pest Repeller Wall Plug-in - Most Effective 2019 Electromagnetic &amp; Ionic Indoor Anti Mouse, Ant, Mosquito, Cockroach Control - Safe &amp; Quiet Device, Night Light - 2000 Sq. Ft (1)\n         https://t.co/i72iqfj3Vp'"
48 ,"b'Upgraded Ultrasonic Pest Repeller Wall Plug-in - Most Effective 2019 Electromagnetic &amp; Ionic Indoor Anti Mouse, Ant, Mosquito, Cockroach Control - Safe &amp; Quiet Device, Night Light - 2000 Sq. Ft\n         https://t.co/04QyQuVTkT'"
49 ,"b""i've been thinking about a virtual instrument that can be played with a mouse/controller. essentially the input device would be like the mouth piece on a trumpet, etc. and the software would be the trumpet itself https://t.co/QXSaCNh18E"""
50 ,"b'My wife does this thing where she\xe2\x80\x99ll continuously press buttons/click her mouse instead of letting whatever device/app load up, and it gives me so much anxiety lol.'"
51 ,"b'@Sokuwu Got it. Before we deem your device as defective, please try cleaning your mouse using a compressed air and blow it towards the scroll wheel. Let us know if the issue persists.'"
52 ,"b'Support HDMI touch screen extender,\xef\xbc\xbbCK2000\xef\xbc\xbd just use a network route can be extended by 50 meters. Also, it can be connected to the HDMI screen USB2.0 peripheral device at the remote end, such as keyboard mouse, mobile disc, touch screen, etc.\n#touch #screen #USB #device #HDMI https://t.co/ZFBhhBenzo'"
53 ,"b""'A doomsday device for the smell mouse and a doomsday device over the unusual exercise routine.' -- Sam"""
54 ,b'@AdmiralDock That would be a start. Still requires movement with four different inputs tho. \n\nI kinda want mouse in one hand and a Nunchuck-like input device with a ton of buttons on the other...'
55 ,"b'Looks like a great combination and even better if #Logitech put the ""device switch"" button on the TOP side of the mouse!  Not a real upgrade from my Craft Keyboard + MX Master 2S combination.  Logitech\'s new MX Master 3 mouse is driven by electromagnets https://t.co/eGhEpsElzL'"
56 ,"b'@MicrosoftHelps Yup, the same even after restarting the device, I have tried an in-place upgrade a clean install, I have tried using third party software to fix the issue with the mouse, reinstalling graphics drivers for the 1440p issue and numerous things for boot up time, nothing works.'"
57 ,"b""Welp, that's mouse support done for Athena. Mouse triggers an interrupt whenever it moves or left/right buttons are pressed or released. You then poll device 10 memory locations 0000h for delta X, 0002h for delta Y, and 0004h for button state bitmask"""
58 ,b'@Barnacules Would be worth getting just for the braid. \nI hate all those stiff unbendy USB cables you get with any USB device. (exception my Logitech Gsomething mouse)'
59 ,"b""It's practically impossible to look at internet porn without some kind of pointer device.\n\nI have no mouse and I must cream."""
60 ,"b'@graveyardmuppet In computer terms, a mouse is a corded or wireless device that moves your computer\'s cursor while you move the mouse. In most cases, the plural of mouse is ""mice,"" but more than one computer mouse can also be called ""mouses.""'"
61 ,b'What a valuable device the mouse has become. Simple and clever. Are your ideas simple and clever? #Innovation #Business https://t.co/rbcZoUMUAS'
62 ,b'Device with the arm sleeve on the mouse hand.'
63 ,b'@kazweida I thought the problem was the keyboard but for me it turned out to be the mouse. Extending my arm beyond the keyboard to use the mouse was what hurt my wrist. Solution for me: a pointing device always right in front me (trackpad on laptop).'
64 ,b'@LinusTech You can plug any USB device into Note 10 using USB adaptor and use mouse/keyboard/controller with no issues.'
65 ,b'Mouse - An advanced input device to make computer errors easier to generate.'
66 ,"b'I feel like cross play is going to be shit. I\xe2\x80\x99m on console and it ask for an input device as if I unplugged a mouse -_-. My buddy is on pc, I\xe2\x80\x99m on console. #Gears5 https://t.co/k5DdRroMKm'"
67 ,"b""@dgrantovski @LinusTech What are you talking about? \nYour deathadder is a mouse, it's a plug and play device. Just like how Windows handles it, Linux can handle it to."""
68 ,"b'@jl91569 Could you try to access the Device Manager, look for Mice and other Pointing Device, expand it, uninstall either the Synaptics Pointing Device or HID -compliant mouse. 1/2'"
69 ,b'@katygoesuwu https://t.co/VrMn0EYnXD I used this one in high school for a couple years'
70 ,b'I thought that people were just good drawers with mouse on ms paint but then I tried it and its easy\nI did this on my school device https://t.co/iEAiBEk0d2'
71 ,"b'@HamDanc3r Soon, they\'ll be offering that you can reach down ""SLOWLY"" disconnect and give them your ""Progressive"" car monitoring OBD device, so you can incriminate yourself willingly in that fashion..\n\nAnd they\'ll still probably shoot your Dog for shits and grins.'"
72 ,"b'When I\xe2\x80\x99m charging a device I can neither use my mouse nor listen music, best UX ever Apple \xf0\x9f\x91\x8c\xf0\x9f\x8f\xbb\xf0\x9f\x91\x8c\xf0\x9f\x8f\xbb\xf0\x9f\x91\x8c\xf0\x9f\x8f\xbb'"
73 ,b'New Gyration Air Mouse Products from Adesso\nhttps://t.co/yeW3niwNw0\n\n#Adesso #Gyration #AirMouse #tech #TechNews #gadgets #gadget #device #business #BusinessNews #computer #presentation #mobile #mobiletech #travel #laptop #laptops #school #contentcreator #contentcreators https://t.co/MiUToVVMD6'
74 ,b'New Gyration Air Mouse Products from Adesso\nhttps://t.co/98siJj6kOK\n\n#Adesso #Gyration #AirMouse #tech #TechNews #gadgets #gadget #device #business #BusinessNews #computer #presentation #mobile #mobiletech #travel #laptop #laptops #school #contentcreator #contentcreators https://t.co/lcQJYiwd1h'
75 ,"b""@byndogehk And no driver updates....\nI'm assuming windows, did you check your device manager?\nIt will show you ALL devices hooked up to your PC.(mouse, keyboard, speakers Ect)\nCheck to see if your webcam shows up there.\nIf so check properties to make sure it's Enabled."""
76 ,"b'#Connect a #USB flash drive/mouse/keyboard/other USB device to a USB On-The-Go tablet/smartphone/other OTG mobile device with VPI\xe2\x80\x99s USB 2.0 OTG #Adapter Cable, Female USB Type A to Male USB Micro B. Use a hub to expand the number of USB peripheral devices.\nhttps://t.co/ZgxDdT9YA4 https://t.co/PogY5EXqB3'"
77 ,"b'@Korsakoff1 @sebastian9er The dongle is HID (3 interfaces with dedicated descriptors: 1. keyboard, 2. mouse+media keys+system keys 3. vendor specific).\n\nOnly difference to other USB based HID attacks (from host perspective): The dongle is already there and intended to be there (no additional device)'"
78 ,b'The laser computer mouse is still best motion control device to date!'
79 ,b'Had to disable TouchScreen on a second device now due to weird mouse control issues. Anyone else seeing that? #Windows10'
80 ,"b""@Cannonbreed tbh I use any android device and pixly, it takes a bit of getting used to but it's good and has mouse support, the attached image was made that way https://t.co/6ZgB4SpGaz"""
81 ,"b'Logitech MX Master Multi-Device Bluetooth Wireless Mouse with USB Unifying Receiver and Rechargeable Battery for Mac and Windows, AMZ Version - Black/Bronze\nMore Info: https://t.co/Bj2OYPYfE8\n\nStyle Name:MX Master for AMZ  The Logitech MX Master Wireless Mouse is ... https://t.co/i5H532q0uR'"
82 ,b'Bought this @VictorPest pestchaser device Sunday and installed it on back porch immediately. Ummm that is mouse poop right on top of it. Guess it doesn\xe2\x80\x99t work!!!\xf0\x9f\xa4\xb7\xf0\x9f\x8f\xbd\xe2\x80\x8d\xe2\x99\x80\xef\xb8\x8f\xf0\x9f\x99\x84 https://t.co/9RmCxV0YUK'
83 ,b'@Blackbull2433 Hey there! Your mouse cursor should appear while using Go Live! Could you try fully closing the Discord app from your Task Manager &gt; then restarting your device and then see if the mouse cursor appears?'
84 ,b'\xe2\x80\x9cWireless Bluetooth4.0 Smart Bulb LED Magic RGBW Home Lighting Lamp 10W E27 Color Change Dimmable AC85-265V Apply to IOS /Android\xe2\x80\x9d https://t.co/LwUC6WRVXt\n#electronics #technology #tech #3dPrinter #electronic #device #gadgets #camera #mouse #geek #techie #smartwatches #techy https://t.co/9uoffENLKt'
85 ,"b""@CaNerdIan I've grounded my Macbook. I use wired keyboard &amp; wired mouse. It helps. But if I type for 10-15 min straight it gets to me. Pain in fingers - nerves. Only  happens using a device."""
86 ,"b'@MichalPfeil @inkxel But no, I\'m not upset about charging a device every few months. But flipping the mouse over to place the plastic touch surface to scratches and damage is classic Apple in my eyes. iMac: ""what do you mean the stores don\'t have clean rooms to repair computers?""'"
87 ,"b""@mattandersen @inkxel You all really mad about charging a mouse, every couple months. The fact that I can customize dozens of gestures with JiTouch n BTouch in such a minimal clean design is a magical experience. What device is magical while charging. Sure, it's not pretty but its charging! Unmagic?"""
88 ,b'#tripod #telescopic MT750s Rechargeable Multi-mode Wireless Mouse 3200DPI Switch between Bluetooth 3.0/4.0 and 2.4G for Four Device Connect https://t.co/AxfmBvaBI8 https://t.co/gf2oywnXC7'
89 ,b'44% OFF Logitech MX Master Multi-Device Bluetooth Wireless Mouse \xe2\x80\xa2\xc2\xa0UK https://t.co/SLcSqM1QcE https://t.co/AfwSXGsX8F'
90 ,b'@_Sharon_____ Sorry.. I had that during my secondary school days.. I was told not look into a bright screen and click on a mouse like device whenever a particular image appears.. Mehn..it was torture..\nMy eyes kept watering throughout'
91 ,"b'@AlexLui32735929 @megadave5000 It all works the same. Distance moved, by ball or laser, swiping across a touch screen, whatevs. I wanna know what kind of workout my mouse / input device finger is getting.'"
92 ,"b'ZIZLY Ultrasonic Pest Repeller Repellent, Home Pest Control Reject Device for Bed Bugs, Rats, Roaches, Rodent, Mouse, Human, Pet Safe. #Deals (almost ~80% off currently)\nhttps://t.co/wH6BO3fZnM'"
93 ,"b'Your #HedgeFolios account is easily accessible with any device as long as you have an internet connection. Once you receive your instant update notification, you can easily replicate our #model #trades with one simple mouse click: https://t.co/tOgOED5KN7 https://t.co/MSu5oVvepK'"
94 ,b'Logitech MX Master Multi-Device Bluetooth Wireless Mouse with USB Unifying Receiver - \xc2\xa344.99 \nhttps://t.co/PK9dZC636S https://t.co/4Jv7WNCd2B'
95 ,"b'\xe3\x83\xbbUplay ID\n\xe3\x80\x8eJCchqn.Gz\xe3\x80\x8f\xe3\x80\x8eJCchan.\xe3\x80\x8f\xe3\x80\x8eAirFox.\xe3\x80\x8f\n\n\xe3\x83\xbbMy setting\nDpi : 400\nX,Y : 13\nAim : 65\n\nAspect 5:4\nFov : 90\n\n\xe3\x83\xbbMy device\nMouse : glorious model O\nMousepad : Logicool G440t\nKeyboard : Logicool pro\nAudio : Shure se215'"
96 ,"b'\xe3\x83\xbbUplay ID\n\xe3\x80\x8eJCchqn.Gz\xe3\x80\x8f\xe3\x80\x8eJCchan.\xe3\x80\x8f\xe3\x80\x8eAirFox.\xe3\x80\x8f\n\n\xe3\x83\xbbMy setting\nDpi : 400\nX,Y : 13\nAim : 65\n\nAspect 5:4\nFov : 90\n\n\xe3\x83\xbbMy device\nMouse : glorious model O\nMousepad : Logicool G440t\nKeyboard : Logicool pro\nAudio : Shure se215'"
97 ,"b'\xe3\x83\xbbUplay ID\n\xe3\x80\x8eJCchqn.Gz\xe3\x80\x8f\xe3\x80\x8eJCchan.\xe3\x80\x8f\xe3\x80\x8eAirFox.\xe3\x80\x8f\n\n\xe3\x83\xbbMy setting\nDpi : 400\nX,Y : 13\nAim : 65\n\nAspect 5:4\nFov : 90\n\n\xe3\x83\xbbMy device\nMouse : glorious model O\nMousepad : Logicool G440t\nKeyboard : Logicool pro\nAudio : Shure se215'"
98 ,"b'untrusted OS images,\ndirect manipulation of the system via a virtual keyboard and mouse, and\ndisable the device entirely.\nAccording to the researchers, a scan of TCP port 623 across the Internet revealed more than 47,000 BMCs from over 90 different countries with the affected BMC'"
99 ,b'[...]Read More... - https://t.co/Hs5Me7Dm7G - #OffersTree #Amazon #Discount'
100,"b'@ModernSinHD @Rainbow6Game @ItsEpi @xavier_marquis wrong, wrong, and wrong.  \n\n1) I\'ve been diamond, I don\'t need to ""get better""\n\n2) R6 does NOT support Mouse for console, that\'s why these cheaters are using a CHEAT device to use Mouse in a game that does NOT allow it.\n\n3) Mouse is not ""limited"", it is a HUGE advantage..a CHEAT.'"
101,"b'According to a 2007 official price guide the 1935 Mickey Mouse Lunch Kit is valued mint at $3200 and you can purchase it now at eBay for $1,600. #Disney\n#MickeyMouse\nhttps://t.co/6ObT2nCnCZ'"
102,b'@ThatDudeFuzzy @SeMThePluG_ @JQub_ @JetpakJ nothing to pipe down about the kid sucked ass and had to get a mouse he wont 2v2 us when hes using a 3rd party device'
103,"b'@MN_ShredHead Also in CoD if you use a device to use a keyboard and mouse on console, it still has aim assists where input change on a console for Fortnite disables aim assist'"
104,"b""@Tweet_Mouse I'm so sorry you're having problems. It could be the device you're using. Could you give us a call and one of our travel advisors can do a holiday search for you."""
105,"b""@Tweet_Mouse They usually all come up ticked and then you can untick what you don't want to select. Could you try a different device? You could also give us a call if you prefer on 0800 916 5189\n^Julie"""
106,b'@LowSpec_Gamer Duct tape an air mouse to the bottom off device. Boom. Motion controls.'
107,"b""@caitlinmoran @GeorgeMonbiot TWO support engineers sent to replace the mouse attached to my PC at work - in case one gets attacked by the faulty device? \n\nApparently there's nothing more vicious than a wounded mouse. I'm surprised they weren't wearing chain mail and/or full NBC suits"""
108,"b""@jamesnixonsteel @Android You've never hooked a mouse up to your Android and used it like a computer? I love using it this way if I'm at home while casting my device to the tele."""
109,b'Automation - When I open AudioBus 3\n\nAuto opens StudioMux\nSelect Audio Output Device\nSet Volume\nStart Recording Audio.\n\nCreate Simple Shortcut to Open AB3 -\nThen Assign a Mouse Key to run the Shortcut\n\nGets a good bit done with a single Click. https://t.co/Bgnxc52dj5'
110,b'Touch Screen is an input (keyboard &amp;  mouse) and output device (monitor or computer screen) rolled in one. -  https://t.co/8VhZbnPoBX https://t.co/adIVXHEpZ2'
111,"b""@greenberg Or get access to the conference room webcam. Or microphone. Or speakers. Or the room's keyboard and mouse. Or mount a storage device."""
112,"b""Can make the Atmega act as a HID mouse device (it can move the mouse). Can't get keyboard to work. Dunno why. https://t.co/Av8LoXOcrJ"""
113,"b'Input devices of the ""mouse"" type.: Hey, there. I am seeking a type of input device which allows for greater control of the cursor and over movement upon the computer display screen. One doesn\'t realize how ""shaky"" one\'s hands are until attempting to do\xe2\x80\xa6 https://t.co/fmk4VuOUF7'"
114,"b'Having great difficulty pairing a @Logitech wireless mouse to my Dell laptop. This should be one of the easier tasks in the personal computing world ... and yet, this crap computer doesn\xe2\x80\x99t read the unifying device. #NeverAgainDell'"
115,b'Found that @GoogleChrome has an awful Overscroll history navigation on Touchpad flag to take you Back/Forward when you swipe left/right with 2 fingers. DO NOT WANT. Swipe left/right with 2 fingers=Mouse Tilt wheel left/right as per DEVICE DRIVER. Chrome breaks this mouse behavior'
116,"b'The way these grid columns animate (check out on a device with a mouse) is interesting, but also very educational on understanding how the browser prioritizes the values in which columns shrink/grow and in what order.\n\nhttps://t.co/57sH877Rkv'"
117,b'Hey @Apple: Magic Mouse 3 with multi-device hand-off??'
118,b'@Saythra Yea usb device wouldn\xe2\x80\x99t let it boot completely unplugged everything went to barebones keyboard and mouse and it finished the repair'
119,"b'I was imagining something like the Nintendo nunchucks as a pointing device, instead of a mouse, and it would have tactile feedback and I\xe2\x80\x99d be able to speak into it and it would have voice recognition that actually works.'"
120,b'@Logitech Are we ever going to see an ergonomic mouse specifically for left handed people? Or at the very least an ambidextrous multi-device one?'
121,"b'@Nl_5antana No, Download the 12.4 .ipsw for your device on computer. Open up iTunes, Select device, On update tab hit shift key and left mouse click down together (Win) Or Options key and left mouse click (Mac) this will allow you to select the 12.4 .ipsw you just downloaded.'"
122,"b'@bauxitedev yea, RSI can be a bitch. I have a right shoulder problem from excessive guitar practice from my younger days. Can only use a wacom tablet as an input device now, as a mouse just brings misery. It does make my typing very shitty though!'"
123,b'H18+ Wireless Air Mouse Mini Keyboard Full screen touch 2.4GHz QWERTY Keyboard Touchpad with Backlight Function For Smart TV PS3 - Negamy https://t.co/sfDFGxG02M\n\n#electronics #technology #tech #3dPrinter #electronic #device #gadgets #camera #mouse #gee\xe2\x80\xa6 https://t.co/wCNTwRaY47 https://t.co/ki3hvoqrgF'
124,b'keyboard backlit English Russian Spanish Air Mouse 2.4GHz Wireless Keyboard Touchpad Handheld for TV BOX Android X96 - Negamy https://t.co/xoGsSGVAlt\n\n#electronics #technology #tech #3dPrinter #electronic #device #gadgets #camera #mouse #geek #techie #s\xe2\x80\xa6 https://t.co/eR2ql4bgX9 https://t.co/MsF2kGzj9L'
125,b'\xe2\x80\x9cSilent Click USB Wired Gaming Mouse 6 Buttons 3200DPI Mute Optical Computer Mouse Gamer Mice for PC Laptop Notebook Game\xe2\x80\x9d https://t.co/lbPNhO7Ic9\n\n#electronics #technology #tech #3dPrinter #electronic #device #gadgets #camera #Xiaomi #geek #techie #sma\xe2\x80\xa6 https://t.co/upGMgMgHg0 https://t.co/LxQnFod6Ta'
126,b'@kyliemaslen Is it one device or all? (ie Mouse or Keyboard?)'
127,b'\xe2\x80\x9cErgonomic Wired Gaming Mouse 7 Button 5500 DPI LED USB Computer Mouse Gamer Mice X7 Silent Mause With Backlight For PC Laptop\xe2\x80\x9d https://t.co/qu1s6Itzyb\n#electronics #technology #tech #3dPrinter #electronic #device #gadgets #camera #mouse #geek #techie #smartwatches #techy https://t.co/6upDU1ZHNR'
128,b'Gaming Headset Deep Bass Stereo Game Headphone with Microphone LED Light for PS4 PC Laptop+Gaming Mouse+Mice Pad - Negamy https://t.co/iJVJH8eatV\n\n#electronics #technology #tech #3dPrinter #electronic #device #gadgets #camera #mouse #geek #techie #smartwatches #techy https://t.co/URIyA4qrEX'
129,b'H18+ Wireless Air Mouse Mini Keyboard Full screen touch 2.4GHz QWERTY Keyboard Touchpad with Backlight Function For Smart TV PS3 - Negamy https://t.co/sfDFGxG02M\n#electronics #technology #tech #3dPrinter #electronic #device #gadgets #camera #mouse #geek #techie #smartwatches https://t.co/ErBTxpzUkf'
130,b'\xe2\x80\x9cWireless Mouse Silent Bluetooth Mouse 4.0 Computer Mause Rechargeable Built-in Battery USB Mice Ergonomic for PC Laptop\xe2\x80\x9d https://t.co/tyiwepODlo\n#electronics #technology #tech #3dPrinter #electronic #device #gadgets #camera #mouse #geek #techie #smartwatches #techy #computers https://t.co/NKCIpwU0Q8'
131,b'\xe2\x80\x9c100% Original Razer DeathAdder Essential Wired Mouse Professional-Grade Gaming Mouse 6400DPI Optical Sensor Mice for Computer PC\xe2\x80\x9d https://t.co/4GHPXIuoc7\n#electronics #technology #tech #3dPrinter #electronic #device #gadgets #camera #mouse #geek #techie #smartwatches #techy https://t.co/rbrTsZFuJh'
132,b'\xe2\x80\x9c2.4G Wireless Keyboard and Mouse Mini Multimedia Keyboard Mouse Combo Set For Notebook Laptop Mac Desktop PC TV Office Supplies\xe2\x80\x9d https://t.co/7cFBWnPPcw\n#electronics #technology #tech #3dPrinter #electronic #device #gadgets #camera #mouse #geek #techie #smartwatches #techy https://t.co/Bjs3m2k9C4'
133,b'keyboard backlit English Russian Spanish Air Mouse 2.4GHz Wireless Keyboard Touchpad Handheld for TV BOX Android X96 - Negamy https://t.co/xiowhYqcOZ\n\n#electronics #technology #tech #3dPrinter #electronic #device #gadgets #camera #mouse #geek #techie #smartwatches #techy https://t.co/MQvrSBS5QK'
134,b'Gaming Russian Keyboard Retro Round Glowing Keycap Metal Panel Backlit USB Wired Metal Panel Illuminated Border Waterproof - Negamy https://t.co/1GGD2YQjl7\n#electronics #technology #tech #3dPrinter #electronic #device #gadgets #camera #mouse #geek #techie #smartwatches #techy https://t.co/2ARJE3NDpP'
135,b'\xe2\x80\x9cSilent Click USB Wired Gaming Mouse 6 Buttons 3200DPI Mute Optical Computer Mouse Gamer Mice for PC Laptop Notebook Game\xe2\x80\x9d https://t.co/lbPNhO7Ic9\n#electronics #technology #tech #3dPrinter #electronic #device #gadgets #camera #Xiaomi #geek #techie #smartwatches #techy https://t.co/MHGamlg2DI'
136,b'\xe2\x80\x9cWireless Mouse Bluetooth Computer Mouse Gamer Silent Mouse Rechargeable Ergonomic Mice Wireless Type C USB Adapter For PC Laptop\xe2\x80\x9d https://t.co/pXXl2RzkZ0  #electronics #technology #tech #3dPrinter #electronic #device #gadgets #camera #Xiaomi #geek #techie #smartwatches #techy https://t.co/wssk1v4mmV'
137,"b""also now i'm reminded of some diehard vim clown who lectured me about not understanding vim because i use the mouse\n\nWhat kind of uneducated simpleton would use the pointing device to jump to an arbitrary position on-screen, instead of elegantly typing ^O{^Ow^O5h"""
138,"b'All Weaponized to create EMF discomfort, burning of hand holding mouse and legs as EMF travels throughout body. Uninstalling all except for Opera to GREATLY REDUCED THE DISCOMFORT. \nThese are weaponized updates and device applications.\nGet rid of them. https://t.co/QCQfED8W0U'"
139,b'gonna stop calling it a mouse and start calling it a pointer device so it looks like i have a personality'
140,"b""With the keyboard and my Surface Mouse, my $99 Walmart tablet has been the only device I've used all weekend.\n\nNot bad. Not bad at all."""
141,"b'This looks exactly the same with the headset device I used for my study during graduate yrs, which was used to stimulate mouse deep brain wirelessly. Soooo similar.'"
142,b'also if anyone was wondering this was the input device they provided. it was locked to 3200DPI. calling it a mouse would is offensive:\nhttps://t.co/c1EAYw3tMX'
143,b'@Potatopolitics trackpoint (clit mouse) is the only valid pointing device (assuming you are abled enough to use it)'
144,b'@Spazkidin3d try updating the mouse in the device manager'
145,b'Make it yours with Mickey designs on any device! @Disney \n\nShop Mickey Mouse Collection: https://t.co/IUr797SpTZ https://t.co/VnWUhLNlk3'
146,b'Touch Screen is an input (keyboard &amp;  mouse) and output device (monitor or computer screen) rolled in one. -  https://t.co/4SZGPrfOlZ https://t.co/scPjNlRolt'
147,b'What device are you using?\n\nWith a desktop left click the map with the mouse and move in the direction you want to see. \n\nFor mobile and tablets you should be able to move the map with your finger. https://t.co/Ngopeldgxs'
148,b'Touch Screen is an input (keyboard &amp;  mouse) and output device (monitor or computer screen) rolled in one. -  https://t.co/4SZGPrfOlZ https://t.co/LQ9XpaSNxc'
