  ,text
0 ,"b'Hardware \xe2\x80\xa2 Re: Rs232 serial mouse for QL: I have some mice that did not worked with Sermouse 3.04 - but they happily work with Sermouse 3.03 (QL +Hermes) Statistics: Posted by Andrew \xe2\x80\x94 Tue Sep 10, 2019 8:01 pm --- https://t.co/B4Wy5iRzWU'"
1 ,"b'Hardware \xe2\x80\xa2 Re: Rs232 serial mouse for QL: Any suggestions? Statistics: Posted by genetika \xe2\x80\x94 Tue Sep 10, 2019 6:55 pm --- https://t.co/1GuIVqQ2sB'"
2 ,"b'\xf0\x9f\x99\x8c @DotEsports names the PRO Wireless as the best performer and the G703 as the most comfortable, which one do you use?\n\nRead the full review at: https://t.co/H0SeMbSar1 https://t.co/9E31ltlIwY'"
3 ,"b'@RaeldonTV @UnnDunn @Slasher @liuxinwei0102 For years major tournament cheaters used steam cloud/ workshop files to download the cheats, as player hardware (mouse, keyboard) is required to be deposited the day before the tournament to be inspected.'"
4 ,"b""Anybody got any recommendations for some decent rgb keyboards and mice?\n\nLooking for something with some decent mechanical switches for the keyboard, and at least two side buttons on the mouse, if that helps.\n\nMy current hardware's on the way out, methinks."""
5 ,"b""If you need a mouse that just works and won't break the bank, this is it.\n #TechnologyLife #Hardware #JellyComb #ProductReview #WirelessMouse https://t.co/FgAmeszP3P"""
6 ,"b'@tritchey Yeah, I\xe2\x80\x99ve seen that kind of thing. I think my mouse issue is hardware.'"
7 ,"b'Oh @surface what are you doing to me? Mouse driver for typecover on my Surface Pro 3 and Pro 4 gone cattywampus: random freezes for a half second or so, and random jumping around the screen. Not hardware, b/c happening on 2 Surfaces, different models, separate typecovers.'"
8 ,"b'My \xef\xa3\xbf mouse disconnects from bluetooth randomly, and not so randomly when I bump it. Then reconnects. Is this a common issue, or is my hardware busted?'"
9 ,b'@joeshmo_osrs @Entergyy Woox is a good example he has amazing clicks with a $5 mouse but he could have disgusting clicks if he cared to get better hardware'
10,"b'@Foone ooh ok so what would this be? Authentic hardware would probably be too expensive, so dosbox? Cheapo hardware should be good enough to run that. Keyboard obviously, would it have winkey or just ctrl+alt? Joystick? Mouse?'"
11,"b'The left mouse button is now also failing on my mouse, rip.\n\nCan anyone recommend a good mouse to pick up? Need to get one sorted out before Shadowkeep, I already cost enough with functioning hardware.'"
12,"b'""Aside from your phone and computer, name a gadget you can\xe2\x80\x99t live without in your workspace?\n\nWireless keyboard and mouse...""\n\nHardware doesn\'t get enough attention! \xe2\x81\xa6#remotework #apple @weworkremotely\xe2\x81\xa9  https://t.co/kek9RJcHM5'"
13,"b""@RighteousKngFu @OhNoItsAlexx Not only that but in a lot of cases. Especially if it's old games that don't run flawlessly on modern hardware or that were made before certain standards like mouse look and widescreen monitors existed."""
14,"b""New Surface keyboard, mouse might join reveal of Microsoft's two-screen laptop https://t.co/EBzFikSxCO via @DigitalTrends \n#microsoft #technews #laptops #hardware"""
15,"b'@ImmersedVR is an interesting product.\n\nVirtual work environments \xf0\x9f\x91\x8d \nBeing confined to a chair \xf0\x9f\x91\x8e\n\nWish you could run virtual machine web views, esp for tasks that don\xe2\x80\x99t heavily require mouse use.\n\nIf anything, I expect too much from the Quest hardware. But the future is \xf0\x9f\x98\x8e'"
16,"b""Who wouldn't want to start their week with a sinus infection, toddler that didn't want to get up, and a mouse in their living room? If anyone needs me I'll be at the hardware store. I should probably change my name to mouse slayer..."""
17,"b'I just goty streaming key for #Mixer.\n\nOn the software side, I am ready to go.\n\nOn the hardware side, I need a desk, second webcam, headset, new mouse and keyboard, and a retractable green screen.\n\nThen, I will slowly commission people for art assets to make my streams better.'"
18,"b""@Cloud_AU_ ur org name be very appropriate when cloud gaming finally takes off , can't wait , no more loading in , more portable , only hardware needed is the 5 g and keyboard mouse / controller , ALL of us having acess to the best with just a monthly fee ."""
19,b'Wiring GPIO pins to press hardware button on USB MOUSE https://t.co/ZXNhNFJd1y https://t.co/jSx2nyx86G'
20,b'@Razer @minliangtan @TeamRazer @RazerSupport make another wireless mouse with a dock I love my mamba wireless with the dock just would like to use the new hardware yall have. The dock just add more chroma and you can never have enough'
21,"b""@nimesh_peiris @Crash1000000 @t8styham There are reasons for games being exclusive to the PC.\n\n\xe2\x80\xa2 Console hardware can't handle it\n\xe2\x80\xa2 Only playable on keyboard and mouse. (List me some games that are only playable on a K/M on console)\n\xe2\x80\xa2 Console is a closed platform (doesn't is cost money to publish on console?)"""
22,"b""@NorthShore2093 @soulauthoress If he wants to get into software music production you should probably just start him on the software. He might give up, there's no use in buying any hardware until you're sure he's serious. He can click with a mouse and control the software."""
23,"b'@LogitechG What kind of troubleshooting is this?!\n\n""7. Switch Primary buttons (control panel&gt;hardware and sound&gt;mouse)""'"
24,"b'@0xhui Second one has nothing to do with IMGUIs but 3D graphics API cannot render as fast as mouse cursor which is handled with special hardware, result also depends on graphics driver. Rendering at variable frequency without vsync + sleep when no input could improve it.'"
25,"b""According to my hardware store, everyone is having trouble with mice and chipmunks getting into their houses. I've had both. But the mouse that Waldo the wonder cat was playing with a couple of days ago, seems to have died in my air ducts. https://t.co/Ueffpalxbp"""
26,b'@LinusTech Is there hardware out there that can run Windows 10 and a serial (D-sub) mouse? I just learned the driver for those is still turned on by default.'
27,"b'@HackInformer Their first tries were on computer hardware. Mouse and keyboard. They gave me 5 keyboards and 5 mouses to tests. All were cheap stuff from china. I did a lot of technical tests on them. Those were ok, but as ok as a 10usd mouse from aliexpress is.'"
28,"b""@surface @panos_panay I love your hardware. We have a PRO, GO, Studio 2, Laptop, &amp; headphones. But, I'm about to throw it all out. I'm sick &amp; tired of trying to get consistent Bluetooth connectivity between them &amp; the dial, ergo kybd, and prec mouse. What can I do?"""
29,b'@PacificRaine @QuirkyGirl69 I worked in a hardware store &amp; always had people wanting sticky \xe2\x80\x9chumane\xe2\x80\x9d traps. I\xe2\x80\x99d explain to them the mouse would chew hs leg off to get away.  Most went for the live traps.'
30,b'@LinusTech The ability to play games and my programs for mouse and keyboard work. On Linux non of the  programs for my hardware works.'
31,"b'Hardware \xe2\x80\xa2 Rs232 serial mouse for QL: Hi. Is it good for sermouse driver ? Thanks in advance. Regards, Massimino Statistics: Posted by genetika \xe2\x80\x94 Fri Sep 06, 2019 6:41 pm --- https://t.co/Jam6RwrEG0'"
32,b'*Zebronics wired mouse*\n@Flipkart\n*@124*\n\n*\xf0\x9f\x91\x891 year limited hardware warranty*\n\n*\xf0\x9f\x91\x89Warranty type : Replacement*\n\n\xf0\x9f\x8c\x90https://t.co/T4KqOAmcFN\n\n#neverpayfull #Flipkart #flipkartoffers #SaturdayMotivation #SaturdayNightRove'
33,"b'@HyperX Hardware: OMEN 880-150t CTO w/ HP Pavilion 32q monitor rig, HyperX Alloy Elite keyboard, HyperX Pulsefire FPS Mouse and HyperX FURY S Mouse Pad.'"
34,b'@MikeGeeHS Did you install any new hardware or even software recently? Also try stripping it down and starting it with just your keyboard and mouse before adding the other peripherals.'
35,b'arivis Vision4D: 3D Direct Quantity Rendering of a mouse lung - Advanced Imaging Pro #HARDWARE #EUVR: https://t.co/kUm3uqpYt2'
36,b'Mouse Logitech Wireless M185 Blue.\n-\nWhatsApp: 542236886979\n-\n#mardelplata #argentina #guemes #Mardel #mdp #mdq #LaCosta #night #buenosaires #informatica #razer #hardware #Computadora #tintas #monitores #PC\xe2\x80\xa6 https://t.co/kHmHkIoIjH'
37,b'Mouse Logitech Wireless M317 Usb Cristal White.\n-\nWhatsApp: 542236886979\n-\n#mardelplata #argentina #guemes #Mardel #mdp #mdq #LaCosta #night #buenosaires #informatica #razer #hardware #Computadora #tintas #monitores\xe2\x80\xa6 https://t.co/KRngSjQzAn'
38,b'The USB charged Magic Mouse is the worst hardware decision in the entire history of Apple products.'
39,"b""@RocketJumpNinja Got a Lenovo m500 and I'm really liking it so far. Don't know why no one is talking about it. Odd shape but comfy and hardware is top of the line (pmw 3389). You and I have almost identical hand size/mouse grip, possible you might like it too. https://t.co/f1kchDo3kW"""
40,"b""CAN YOU GUESS THE YEAR?\nWhat year did this 'updated' mouse model get released?\n\nThere's a hint there somewhere \xf0\x9f\x98\x89\n\n#ThrowbackThursday #Tech #Hardware https://t.co/LZe5BvCBqZ"""
41,"b'\xe2\x80\x98Keyboard + Mouse\xe2\x80\x99 by Jacktionman at #arselectronica19 Interactive keyboard and mouse made using 100% natural wool, invites the audience to experience whether the softening of our hardware could soften our harsh communication edges. @jacktionman @QMUL_MAT https://t.co/oMZsqKqkab https://t.co/Uhh2SrGvli'"
42,"b""@Queen4Head Np :) Should be easy to do. Any of the products listed have reviews from a reputable source. Example being Tom's Hardware or one of those. If you want to consider the USB or Mouse Bungee method.. I can send a list of that stuff too"""
43,"b'Thats not tracking me, cellular enabled, with hardware killswitches and external monitor keyboard mouse support ON THE HORIZON, i might huy one to support the mission where @Canonical failed with #Ubuntu phone. Qill probably be good for me not have all the apps anyways'"
44,"b""@518rik Hi! Sorry for the trouble. Thanks for reaching out. Have you tried adjusting the mouse settings through the Mouse Properties window. If not, please go to Control Panel &gt; Hardware and Sound &gt; Mouse &gt; Wheel. Don't forget to click on Apply and OK. Let us know. -Maru_Lenovo"""
45,"b'With #Organized IT #Hardware\n\nClean up components: Wipe your monitor, your mouse\xe2\x80\x99s Exterior, Tidy up your keyboard.\nRemember to clean your Printers Interior and Exterior.\nUse cable management solutions for messy wires and keep them uncluttered and untangled.\n551-777-4357 https://t.co/euv0liepIm'"
46,"b'Only Rs. 6000 for a full and working OEM desktop PC from the top companies like Dell, HP, and Lenovo complete with keyboard, mouse and desktop, complete with warranty.\nContact us for inquiries. \n#Budget #Hardware #IT #ITServices #Renting #Leasing #RMVITServicesPvtLtd #RMVIT https://t.co/kxczYjCxVt'"
47,"b'Logitech\xe2\x80\x99s MX Master mice have long been some of the best money could buy. And now it\xe2\x80\x99s back with the third-generation, the MX Master 3, that once again raises the bar with an even more refined version of its hardware that makes the already https://t.co/VyOLJT1lA9'"
48,b'Beyond livid. I recently fixed my MacBook Pro because I had fried the hardware. $250 expense. Now the mouse is unresponsive. This is bullshit.'
49,"b'Logitech\xe2\x80\x99s MX Master mice have long been some of the best money could buy. And now it\xe2\x80\x99s back with the third-generation, the MX Master 3, that once again raises the bar with an even more refined version of its hardware that makes the already https://t.co/5uNBUhhdZR'"
50,"b""@BIM4GIB @PragmaticPrxs @Twiceroadsfool @kraftwerk_15 @remiscs It's not hardware, it's a software mouse and keyboard sharing thingy"""
51,"b'@snowyweston @PragmaticPrxs @Twiceroadsfool @kraftwerk_15 @remiscs I endure their software. Not sure I want to endure their hardware as well, but can\xe2\x80\x99t say I have tried that mouse, to be fair.'"
52,b'@BIM4GIB @PragmaticPrxs @Twiceroadsfool @kraftwerk_15 @remiscs All these flash hardware gizmos - I just use https://t.co/7j07GgnRQA across my four home machines.'
53,b'Microsoft Preparing Surface Wireless Mouse and Keyboard for Hardware Event https://t.co/c9sAKrzayr'
54,b'Microsoft Preparing Surface Wireless Mouse and Keyboard for Hardware Event https://t.co/O8Dymgq7ye via @wbuzzer'
55,"b""Logitech MX Master 3 Wireless Mouse Review: Reinventing the Wheel Successfully - Tom's Hardware https://t.co/QSRr4cRCKI \xd8\xb9\xd8\xa8\xd8\xb1 @elactarea"""
56,b'The best mouse you can buy finally gets USB-C with Logitech\xe2\x80\x99s new MX Master 3 https://t.co/TC2Pog2qLm #Gadgets #Hardware #TC https://t.co/UmGZG1d925'
57,b'Microsoft Preparing Surface Wireless Mouse and Keyboard for Hardware Event - WinBuzzer https://t.co/tXLqsi87IV'
58,b'Logitech MX Master 3 Wireless Mouse Review: Reinventing the Wheel Successfully \xe2\x80\x93 Tom\xe2\x80\x99s Hardware https://t.co/8jmzMSQtxD'
59,b'Tech News: Logitech MX Grasp 3 Wi-fi Mouse Overview: Reinventing the Wheel Successfully \xe2\x80\x93 Tom\xe2\x80\x99s Hardware https://t.co/Y8lSoH1xLE https://t.co/i8Ed2cBYif'
60,b'Microsoft Preparing Surface Wireless Mouse and Keyboard for Hardware Event https://t.co/ifeGyc2euz https://t.co/2NMgTFyzuQ'
61,b'The best mouse you can buy finally gets USB-C with Logitech\xe2\x80\x99s new MX Master 3 https://t.co/nEdIxsEqIA #Gadgets #Hardware #TC https://t.co/NGaQ61fWWF'
62,b'The best mouse you can buy finally gets USB-C with Logitech\xe2\x80\x99s new MX Master 3 https://t.co/V0ReifUQc5 #Hardware #Gadgets #TC'
63,b'#Gadgets #Hardware The best mouse you can buy finally gets USB-C with Logitech\xe2\x80\x99s new MX Master 3 https://t.co/xs1F9FQTIn https://t.co/KIPrqhK8na'
64,b'@MKBHD Did they fix the thumb pad button? I\xe2\x80\x99ve bought two master mx 2s and that button stuck on both after a year or so. It renders the mouse unusable and Logitech won\xe2\x80\x99t replace or even acknowledge the hardware design flaw. The same design flaw existed on the mx1 and they didn\xe2\x80\x99t fix it'
65,b'Logitech MX Master 3 Wireless Mouse Review: Reinventing the Wheel Successfully \xe2\x80\x93 Tom\xe2\x80\x99s\xc2\xa0Hardware https://t.co/71VOLuxq9i'
66,"b""* Logitech MX Master 3 Wireless Mouse Review: Reinventing the Wheel Successfully\xc2\xa0\xc2\xa0Tom's Hardware * Logitech\xe2\x80\x99s MX Master 3 makes the best mouse even better\xc2\xa0\xc2\xa0Circuit Breaker * MX Master 3 - Advanced wireless mouse - Think it. Master it.\xc2\xa0\xc2\xa0Logitech * This\xe2\x80\xa6 https://t.co/ub2AiOBItq https://t.co/Bm3zsvKPLx"""
67,"b""Logitech MX Master 3 Wireless Mouse Review: Reinventing the Wheel Successfully - Tom's Hardware - +GENERAL PHYSICS LABORATORY (GPL)\n\nLogitech MX Master 3 Wireless Mouse Review: Reinventing the Wheel Successfully\xc2\xa0\xc2\xa0Tom's ...\n\nhttps://t.co/laCSA1s5u5"""
68,"b""Logitech MX Master 3 Wireless Mouse Review: Reinventing the Wheel Successfully - Tom's Hardware https://t.co/d4FJWaSUpt"""
69,b'Tech News: Logitech MX Grasp 3 Wi-fi Mouse Overview: Reinventing the Wheel Successfully \xe2\x80\x93 Tom\xe2\x80\x99s\xc2\xa0Hardware https://t.co/iwvxQPdjFF'
70,"b""San Francisco News Logitech MX Master 3 Wireless Mouse Review: Reinventing the Wheel Successfully - Tom's Hardware https://t.co/MfcxlGo2kn https://t.co/77EEneVK7W"""
71,"b""Logitech MX Master 3 Wireless Mouse Review: Reinventing the Wheel Successfully - Tom's Hardware https://t.co/ro6riB3ant"""
72,"b""Logitech MX Master 3 Wireless Mouse Review: Reinventing the Wheel Successfully - Tom's Hardware https://t.co/uylIJ7M60Q"""
73,"b""Logitech MX Master 3 Wireless Mouse Review: Reinventing the Wheel Successfully \xe2\x80\x93 Tom's\xc2\xa0Hardware https://t.co/MdeeFdM2v7"""
74,"b""Logitech MX Master 3 Wireless Mouse Review: Reinventing the Wheel Successfully - Tom's Hardware https://t.co/sC3XZxC50i"""
75,"b""Logitech MX Master 3 Wireless Mouse Review: Reinventing the Wheel Successfully - Tom's Hardware https://t.co/P8CgWxwr8j"""
76,"b""Logitech MX Master 3 Wireless Mouse Review: Reinventing the Wheel Successfully - Tom's Hardware https://t.co/qAZ4nFCjE8"""
77,"b""Logitech MX Master 3 Wireless Mouse Review: Reinventing the Wheel Successfully - Tom's Hardware via @GoogleNews #technology #blogger #Science #iamrahuljha #rahul #rahuljha #123RahulJha #5G #techbuzz #TechGig #RahulJhaKailash #fb https://t.co/fsHqdCInqk"""
78,"b""Raleigh News Logitech MX Master 3 Wireless Mouse Review: Reinventing the Wheel Successfully - Tom's Hardware https://t.co/SNrBISvUKc https://t.co/caieMIjKdL"""
79,"b""Logitech MX Master 3 Wireless Mouse Review: Reinventing the Wheel Successfully - Tom's Hardware - https://t.co/MWQZUIHQTU https://t.co/eMZ8m42fxM"""
80,b'Logitech MX Master 3 Wireless Mouse Review: Reinventing the Wheel Successfully \xe2\x80\x93 Tom\xe2\x80\x99s\xc2\xa0Hardware https://t.co/KTX64KMek7'
81,b'90s Aladdin and The Lion King Video Games Coming to Modern Gaming Hardware in Disney Classic Games Collection\nhttps://t.co/qYraBUWgBy\n#Disney https://t.co/hSxfeRXDgg'
82,b'Management insists on direct involvement in the monitoring of all mouse-related activities and hardware. https://t.co/q8j0UrZzvo'
83,"b""@CommodoreBlog The last Commodore built thing I've bought was probably the Plus/4 many years ago. The last pieces of hardware I bought *for* the Commodore would be a USB mouse converter for the Amiga and an SD2IEC\n\nhttps://t.co/NPpz1PaXqI"""
84,"b'The Seiko draw board is hardware side rdy to go for the IS-Character! Got the original PSU, mouse and data cable. Also did some light retro bright and cleaned it. https://t.co/wzmFwyyJmK'"
85,"b'@mech_mouse I was appreciative of the GBC for handheld gaming, but yeah, graphically a lot of its games were still very limited by the hardware. \n\nThe GBA was as well, but gave enough room for things to get even more interesting, both in hardware &amp; resolution.'"
86,"b'@NinsMCD A lot of fancy RGB keyboards nowadays are part of a hardware set, if you have one of those fancy keyboards, check if its part of a set and if so, if that set also has an RGB mouse or something so you can link the RGB lights together :)'"
